"microsim.init.id","microsim.init.sex","microsim.init.age","microsim.init.race","microsim.roles.employment.status","microsim.roles.parenthood.status","microsim.roles.marital.status","microsim.init.education","microsim.init.income","microsim.init.drinkingstatus","microsim.init.heavy.episodic.drinking","microsim.init.alc.gpd","microsim.init.annual.frequency","microsim.init.drinks.per.month"
1,0,18,"BLA",1,1,0,"highschool",50426.2234706617,1,0,2.786780928207,60,5
2,0,19,"BLA",1,0,0,"highschool",34408.481897628,0,0,0,0,0
3,0,22,"BLA",1,0,0,"somecollege",1234.97503121099,1,0,2.710285,12,5
4,0,21,"BLA",0,1,1,"highschool",32120.8926342072,1,0,0.648088587955117,12,1
5,0,24,"BLA",1,1,0,"highschool",21615.5255930087,1,0,5.18470870364094,12,11
6,0,25,"BLA",1,1,0,"collegeplus",15304.456928839,1,0,1.94426576386535,12,4
7,0,27,"BLA",0,0,1,"highschool",13545.4831460674,1,0,2.710285,12,5
8,0,25,"BLA",1,1,0,"highschool",72584.2147315855,1,0,3.8885315277307,84,8
9,0,26,"BLA",1,1,0,"collegeplus",149750.533083645,1,0,2.59235435182047,24,5
10,0,27,"BLA",1,0,0,"highschool",46121.1235955056,1,0,2.710285,12,5
11,0,29,"BLA",0,0,0,"collegeplus",14870.4843945069,0,0,0,0,0
12,0,30,"BLA",0,1,1,"highschool",46732.8401997503,0,0,0,0,0
13,0,30,"BLA",1,0,0,"highschool",22418.836454432,0,0,0,0,0
14,0,30,"BLA",1,0,1,"highschool",18552.3258426966,1,0,2.710285,12,5
15,0,30,"BLA",1,0,0,"somecollege",38681.2646691635,0,0,0,0,0
16,0,30,"BLA",0,0,0,"highschool",1509.67041198502,0,1,0,0,0
17,0,31,"BLA",0,0,0,"somecollege",19129.4169787765,1,0,11.147123712828,120,23
18,0,33,"BLA",1,1,1,"somecollege",55756.2372034956,0,0,0,0,0
19,0,33,"BLA",0,0,1,"somecollege",58590.9088639201,0,0,0,0,0
20,0,32,"BLA",1,1,0,"highschool",40474.8639200999,0,0,0,0,0
21,0,32,"BLA",1,1,1,"somecollege",49816.8152309613,1,2,7.7770630554614,24,16
22,0,37,"BLA",1,0,0,"highschool",22654.2896379526,0,0,0,0,0
23,0,39,"BLA",1,0,0,"highschool",39168.329588015,0,0,0,0,0
24,0,35,"BLA",1,0,1,"highschool",32806.4769038702,1,1,8.36034278462101,60,17
25,0,36,"BLA",0,0,0,"somecollege",19482.5967540574,1,2,29.1639864579803,216,62
26,0,41,"BLA",1,0,0,"highschool",57824.531835206,1,0,1.29617717591023,12,2
27,0,41,"BLA",0,0,0,"highschool",27.7003745318352,1,0,11.147123712828,60,23
28,0,44,"BLA",1,0,0,"highschool",23489.9176029963,0,0,0,0,0
29,0,43,"BLA",0,0,1,"highschool",41691.3720349563,1,0,3.109232,12,6
30,0,41,"BLA",1,0,0,"highschool",28392.8838951311,0,0,0,0,0
31,0,44,"BLA",1,0,0,"highschool",34233.0461922597,1,0,3.109232,12,6
32,0,41,"BLA",1,1,1,"highschool",119672.543071161,1,0,3.109232,12,6
33,0,44,"BLA",1,1,1,"collegeplus",85711.8838951311,1,0,8.36034278462101,180,17
34,0,47,"BLA",1,0,0,"highschool",25366.6179775281,1,0,39.0149329948981,360,83
35,0,49,"BLA",0,0,1,"highschool",49489.0274656679,1,0,1.29617717591023,24,2
36,0,52,"BLA",0,0,0,"highschool",8141.60174781523,0,0,0,0,0
37,0,56,"BLA",1,0,0,"highschool",14021.0062421973,1,0,0.648088587955117,12,1
38,0,51,"BLA",0,1,0,"highschool",15502.9762796504,0,0,0,0,0
39,0,59,"BLA",1,0,1,"highschool",38274.9925093633,1,2,22.294247425656,240,47
40,0,52,"BLA",0,0,0,"highschool",10514.6004993758,0,0,0,0,0
41,0,50,"BLA",1,0,1,"highschool",177695.594257179,1,0,1.29617717591023,24,2
42,0,64,"BLA",1,0,1,"somecollege",52886.9400749064,0,0,0,0,0
43,0,72,"BLA",1,0,1,"highschool",56086.3333333333,0,0,0,0,0
44,0,60,"BLA",0,1,0,"highschool",865.63670411985,0,0,0,0,0
45,0,79,"BLA",0,0,0,"highschool",17917.5255930087,0,0,0,0,0
46,0,63,"BLA",0,0,1,"collegeplus",30193.4082397004,1,0,3.8885315277307,48,8
47,0,75,"BLA",0,0,0,"highschool",122.343320848939,0,0,0,0,0
48,0,78,"BLA",0,0,0,"highschool",1784.36579275905,0,0,0,0,0
49,0,73,"BLA",0,0,1,"highschool",9870.56679151061,0,0,0,0,0
50,1,18,"BLA",1,0,0,"highschool",3344.8202247191,0,0,0,0,0
51,1,19,"BLA",1,0,0,"highschool",14972.0524344569,1,0,2.59235435182047,60,5
52,1,21,"BLA",1,0,0,"highschool",86619.0711610487,0,0,0,0,0
53,1,21,"BLA",1,1,1,"somecollege",26003.7265917603,1,2,18.1464804627433,96,38
54,1,22,"BLA",1,1,1,"highschool",36774.5555555556,1,0,9.07324023137164,96,19
55,1,21,"BLA",0,0,0,"highschool",12788.3395755306,1,0,11.6655945831921,48,24
56,1,20,"BLA",1,0,0,"somecollege",68103.6791510612,1,1,5.57356185641401,60,11
57,1,21,"BLA",0,0,0,"somecollege",23224.4556803995,1,0,4.520684,12,9
58,1,24,"BLA",1,0,0,"somecollege",35509.5717852684,1,2,41.8017139231051,180,89
59,1,23,"BLA",1,0,0,"highschool",56444.1298377029,1,0,11.147123712828,120,23
60,1,24,"BLA",1,0,0,"highschool",48406.404494382,1,0,11.147123712828,120,23
61,1,25,"BLA",1,1,1,"somecollege",209961.913857678,0,1,0,0,0
62,1,25,"BLA",1,0,0,"highschool",42042.2434456929,0,0,0,0,0
63,1,26,"BLA",1,1,1,"highschool",60153.6716604245,0,0,0,0,0
64,1,26,"BLA",1,1,1,"somecollege",41862.191011236,1,2,4.520684,12,9
65,1,28,"BLA",1,0,0,"highschool",24669.4918851436,1,0,5.57356185641401,60,11
66,1,25,"BLA",1,1,1,"highschool",36045.1123595506,1,30,117.044798984694,360,250
67,1,26,"BLA",1,1,1,"somecollege",131276.691635456,0,0,0,0,0
68,1,27,"BLA",1,1,1,"highschool",70582.8626716604,1,0,27.86780928207,120,59
69,1,30,"BLA",1,1,1,"highschool",36799.9475655431,1,0,3.8885315277307,24,8
70,1,29,"BLA",1,0,0,"highschool",43759.6666666667,1,0,19.4426576386535,144,41
71,1,30,"BLA",1,1,1,"highschool",41167.3732833958,1,0,3.8885315277307,24,8
72,1,31,"BLA",1,0,0,"highschool",33429.7353308365,1,1,33.441371138484,180,71
73,1,34,"BLA",1,0,1,"highschool",60765.3882646692,1,0,5.57356185641401,60,11
74,1,31,"BLA",1,0,0,"highschool",32758.0012484395,1,1,33.441371138484,180,71
75,1,36,"BLA",1,0,0,"highschool",36315.191011236,1,1,195.07466497449,360,418
76,1,35,"BLA",0,1,1,"highschool",50084.5855181024,0,0,0,0,0
77,1,35,"BLA",1,1,1,"collegeplus",68913.9151061174,1,0,58.5223994923471,360,125
78,1,36,"BLA",1,0,0,"somecollege",76882.3895131086,1,0,78.0298659897961,360,167
79,1,36,"BLA",0,0,0,"highschool",20636.7790262172,1,0,19.83417,12,42
80,1,41,"BLA",1,1,0,"somecollege",45922.6042446941,1,2,19.83417,12,42
81,1,46,"BLA",1,0,0,"highschool",12315.1248439451,1,2,19.83417,12,42
82,1,48,"BLA",1,0,0,"somecollege",225520.290886392,1,0,16.720685569242,180,35
83,1,47,"BLA",1,0,1,"somecollege",57399.7927590512,1,0,11.147123712828,60,23
84,1,47,"BLA",0,1,1,"highschool",10032.152309613,1,0,2.786780928207,60,5
85,1,51,"BLA",0,0,1,"somecollege",25475.1111111111,1,30,97.5373324872451,360,209
86,1,56,"BLA",1,1,1,"collegeplus",70405.1186017478,1,0,1.94426576386535,48,4
87,1,56,"BLA",1,1,1,"somecollege",67930.5518102372,1,0,16.720685569242,180,35
88,1,58,"BLA",1,1,1,"somecollege",54004.1885143571,1,0,16.720685569242,180,35
89,1,62,"BLA",0,0,1,"highschool",42164.5867665418,0,0,0,0,0
90,1,69,"BLA",0,1,1,"highschool",16310.9038701623,0,0,0,0,0
91,1,69,"BLA",0,1,1,"highschool",19683.4244694132,0,0,0,0,0
92,1,61,"BLA",1,1,1,"highschool",3721.0836454432,1,0,0.648088587955117,12,1
93,1,68,"BLA",0,0,1,"highschool",50313.11360799,1,1,3.24044293977559,72,6
94,1,60,"BLA",0,0,0,"highschool",16964.1710362047,0,0,0,0,0
95,0,18,"OTH",1,0,0,"highschool",5186.89513108614,1,0,1.483698,12,3
96,0,22,"OTH",0,1,0,"highschool",22379.5942571785,1,4,33.441371138484,60,71
97,0,20,"OTH",0,1,0,"highschool",14969.7440699126,1,4,33.441371138484,60,71
98,0,20,"OTH",1,0,0,"somecollege",11033.9825218477,1,0,0.648088587955117,12,1
99,0,26,"OTH",0,1,1,"highschool",21227.720349563,1,0,0.648088587955117,12,1
100,0,29,"OTH",0,1,1,"highschool",42760.1448189763,0,0,0,0,0
101,0,31,"OTH",1,0,0,"highschool",6161.02496878901,0,0,0,0,0
102,0,31,"OTH",0,1,1,"collegeplus",188279.445692884,1,0,3.8885315277307,48,8
103,0,36,"OTH",0,0,0,"somecollege",13342.3470661673,1,0,8.36034278462101,180,17
104,0,35,"OTH",1,1,1,"highschool",11377.9288389513,1,2,1.29617717591023,12,2
105,0,35,"OTH",0,0,0,"highschool",7536.8102372035,1,6,50.1620567077261,180,107
106,0,37,"OTH",0,1,1,"highschool",48097.0836454432,1,0,0.7623009,12,1
107,0,43,"OTH",1,1,1,"somecollege",89017.4619225968,0,0,0,0,0
108,0,46,"OTH",1,1,1,"highschool",18044.4856429463,1,1,16.720685569242,180,35
109,0,55,"OTH",0,1,1,"highschool",8557.10736579276,1,0,0.7623009,12,1
110,0,52,"OTH",0,0,1,"highschool",74419.3645443196,0,1,0,0,0
111,0,56,"OTH",1,0,0,"somecollege",49597.5205992509,0,0,0,0,0
112,0,51,"OTH",0,1,1,"highschool",80430.3458177278,0,0,0,0,0
113,0,54,"OTH",0,0,1,"highschool",3471.78027465668,1,0,0.7623009,12,1
114,0,69,"OTH",0,0,0,"highschool",17010.3383270911,0,0,0,0,0
115,1,29,"OTH",1,1,1,"collegeplus",73283.6491885144,0,3,0,0,0
116,1,38,"OTH",1,1,1,"collegeplus",50306.1885143571,1,0,12.9617717591023,72,27
117,1,42,"OTH",1,0,0,"collegeplus",198914.081148564,1,0,3.8885315277307,48,8
118,1,51,"OTH",1,0,1,"collegeplus",146151.792759051,1,0,39.0149329948981,360,83
119,1,72,"OTH",0,0,0,"somecollege",4621.34581772784,1,0,33.441371138484,180,71
120,1,66,"OTH",1,0,1,"highschool",71531.6004993758,1,0,1.29617717591023,24,2
121,0,19,"SPA",0,1,0,"highschool",29694.8014981273,1,1,1.94426576386535,48,4
122,0,18,"SPA",0,0,0,"highschool",30193.4082397004,1,1,1.94426576386535,48,4
123,0,19,"SPA",1,1,1,"highschool",20269.7490636704,1,0,3.8885315277307,48,8
124,0,20,"SPA",1,0,0,"highschool",78705.9975031211,1,1,11.147123712828,120,23
125,0,20,"SPA",0,1,1,"highschool",55223.0049937578,0,0,0,0,0
126,0,22,"SPA",0,1,0,"highschool",211058.38701623,1,8,33.441371138484,120,71
127,0,20,"SPA",0,0,1,"highschool",57113.5555555556,1,0,1.921955,12,4
128,0,24,"SPA",1,0,0,"somecollege",32695.6754057428,1,2,7.7770630554614,48,16
129,0,28,"SPA",1,1,1,"highschool",53417.8639200999,0,0,0,0,0
130,0,27,"SPA",1,1,1,"highschool",66921.7965043695,0,0,0,0,0
131,0,25,"SPA",1,1,1,"highschool",66540.9163545568,0,2,0,0,0
132,0,29,"SPA",1,0,0,"highschool",11569.5230961298,0,0,0,0,0
133,0,29,"SPA",1,1,1,"collegeplus",67191.8751560549,1,0,39.0149329948981,360,83
134,0,31,"SPA",0,0,1,"collegeplus",60652.2784019975,1,0,0.648088587955117,12,1
135,0,34,"SPA",1,0,0,"collegeplus",205550.629213483,1,0,1.29617717591023,24,2
136,0,34,"SPA",1,1,1,"collegeplus",94003.5293383271,1,0,1.921955,12,4
137,0,32,"SPA",1,1,1,"highschool",65419.0511860175,1,0,1.921955,12,4
138,0,32,"SPA",1,1,1,"highschool",63609.2933832709,0,0,0,0,0
139,0,32,"SPA",1,1,1,"collegeplus",110215.173533084,0,0,0,0,0
140,0,34,"SPA",1,0,0,"somecollege",47663.1111111111,1,0,11.147123712828,60,23
141,0,31,"SPA",0,1,1,"highschool",57182.8064918851,0,1,0,0,0
142,0,36,"SPA",0,1,1,"somecollege",77537.9650436954,0,0,0,0,0
143,0,39,"SPA",1,0,0,"collegeplus",59387.2946317104,0,0,0,0,0
144,0,39,"SPA",1,1,0,"somecollege",15593.0024968789,0,0,0,0,0
145,0,38,"SPA",1,1,0,"highschool",28736.8302122347,0,0,0,0,0
146,0,37,"SPA",1,0,0,"collegeplus",24046.2334581773,0,0,0,0,0
147,0,43,"SPA",1,1,1,"collegeplus",35604.2147315855,1,0,5.57356185641401,60,11
148,0,41,"SPA",1,1,1,"highschool",14748.1410736579,1,0,1.47148,12,3
149,0,42,"SPA",1,0,0,"highschool",10295.3058676654,1,0,1.29617717591023,12,2
150,0,40,"SPA",0,0,0,"highschool",122.343320848939,0,0,0,0,0
151,0,40,"SPA",1,1,1,"collegeplus",44283.6654182272,1,0,5.57356185641401,60,11
152,0,48,"SPA",0,1,1,"highschool",22965.9188514357,1,0,1.47148,12,3
153,0,48,"SPA",1,0,1,"somecollege",73387.5255930087,1,0,1.47148,12,3
154,0,45,"SPA",0,1,0,"highschool",40417.1548064919,1,0,1.94426576386535,12,4
155,0,54,"SPA",0,1,1,"highschool",55047.5692883895,1,0,1.47148,12,3
156,0,56,"SPA",0,0,1,"highschool",23861.5642946317,1,2,1.47148,12,3
157,0,76,"SPA",0,0,0,"collegeplus",8492.47315855181,1,0,1.47148,12,3
158,0,64,"SPA",0,1,1,"highschool",7993.86641697878,0,0,0,0,0
159,0,65,"SPA",0,0,0,"highschool",18.4669163545568,1,0,10.56491,12,22
160,0,79,"SPA",0,0,0,"highschool",8116.20973782772,1,0,5.57356185641401,60,11
161,1,20,"SPA",1,0,0,"highschool",21645.5343320849,1,0,5.57356185641401,60,11
162,1,21,"SPA",1,1,0,"highschool",30449.6367041199,1,0,22.294247425656,120,47
163,1,20,"SPA",1,1,0,"highschool",12409.7677902622,1,3,55.7356185641401,240,119
164,1,21,"SPA",1,0,0,"highschool",106233.244694132,1,0,11.147123712828,60,23
165,1,22,"SPA",1,0,0,"highschool",139517.553058677,1,0,11.147123712828,60,23
166,1,22,"SPA",1,1,0,"highschool",24847.2359550562,1,0,22.294247425656,120,47
167,1,24,"SPA",1,1,1,"somecollege",55770.0873907616,1,1,3.24044293977559,12,6
168,1,26,"SPA",1,0,0,"highschool",22802.024968789,1,4,33.441371138484,120,71
169,1,30,"SPA",1,0,1,"somecollege",77916.5368289638,1,0,1.94426576386535,48,4
170,1,32,"SPA",1,1,1,"highschool",17204.240948814,1,0,3.8885315277307,24,8
171,1,33,"SPA",1,1,1,"highschool",54371.2184769039,1,0,0.648088587955117,12,1
172,1,34,"SPA",1,1,1,"highschool",16726.4094881398,1,0,3.8885315277307,24,8
173,1,36,"SPA",1,1,1,"highschool",53429.4057428215,1,0,33.441371138484,360,71
174,1,35,"SPA",1,1,1,"highschool",69123.9762796504,1,0,10.04697,12,21
175,1,43,"SPA",1,0,1,"highschool",67501.1960049938,1,2,25.081028353863,180,53
176,1,42,"SPA",1,0,0,"highschool",51441.9038701623,1,3,22.294247425656,240,47
177,1,41,"SPA",1,1,1,"collegeplus",114178.63545568,1,0,5.57356185641401,120,11
178,1,41,"SPA",1,0,0,"somecollege",128026.514357054,1,0,19.507466497449,360,41
179,1,45,"SPA",1,1,1,"somecollege",215418.887640449,1,0,3.8885315277307,24,8
180,1,59,"SPA",1,1,1,"somecollege",69853.4194756554,0,1,0,0,0
181,1,51,"SPA",1,1,1,"highschool",24604.8576779026,1,1,19.507466497449,60,41
182,1,55,"SPA",0,0,0,"somecollege",28148.1972534332,1,2,5.57356185641401,60,11
183,1,51,"SPA",1,0,1,"collegeplus",77874.9862671661,0,0,0,0,0
184,1,67,"SPA",1,0,0,"collegeplus",76778.5131086142,1,0,39.0149329948981,360,83
185,1,70,"SPA",0,0,0,"highschool",18570.7927590512,1,0,10.04697,12,21
186,0,19,"WHI",0,1,1,"highschool",50811.720349563,1,0,4.139799,12,8
187,0,18,"WHI",1,0,0,"highschool",14270.3096129838,1,1,55.7356185641401,120,119
188,0,19,"WHI",0,1,0,"highschool",2195.25468164794,1,2,4.139799,12,8
189,0,18,"WHI",0,1,0,"somecollege",201988.822721598,0,0,0,0,0
190,0,19,"WHI",1,0,0,"highschool",21153.8526841448,0,0,0,0,0
191,0,19,"WHI",1,0,1,"somecollege",43060.2322097378,0,0,0,0,0
192,0,18,"WHI",1,0,0,"highschool",10191.429463171,0,1,0,0,0
193,0,20,"WHI",1,0,1,"highschool",54177.315855181,1,0,0.648088587955117,12,1
194,0,22,"WHI",1,0,0,"somecollege",4866.03245942572,1,0,16.720685569242,180,35
195,0,20,"WHI",1,0,0,"highschool",31938.531835206,1,0,13.933904641035,300,29
196,0,21,"WHI",1,0,0,"somecollege",29722.5018726592,1,0,2.59235435182047,24,5
197,0,20,"WHI",0,1,1,"somecollege",38614.3220973783,1,0,4.139799,12,8
198,0,20,"WHI",1,1,0,"somecollege",2375.30711610487,1,6,234.089597969388,360,501
199,0,20,"WHI",1,0,1,"highschool",63863.2134831461,1,0,3.8885315277307,24,8
200,0,21,"WHI",0,1,0,"highschool",34770.8951310861,1,0,11.147123712828,120,23
201,0,20,"WHI",1,0,0,"highschool",41728.3058676654,1,0,2.59235435182047,24,5
202,0,22,"WHI",0,0,0,"somecollege",13626.2759051186,0,0,0,0,0
203,0,22,"WHI",1,0,0,"highschool",17956.7677902622,1,4,33.441371138484,120,71
204,0,20,"WHI",1,1,0,"somecollege",38060.3146067416,1,0,1.29617717591023,12,2
205,0,22,"WHI",1,1,1,"highschool",33554.3870162297,1,0,1.29617717591023,12,2
206,0,22,"WHI",1,0,0,"collegeplus",81598.3782771536,1,0,1.29617717591023,24,2
207,0,22,"WHI",0,1,1,"highschool",38383.4856429463,1,0,4.139799,12,8
208,0,21,"WHI",1,1,1,"highschool",26336.1310861423,1,1,4.139799,12,8
209,0,20,"WHI",0,0,0,"highschool",9039.55555555556,1,0,33.441371138484,180,71
210,0,22,"WHI",0,0,1,"somecollege",43725.0411985019,0,0,0,0,0
211,0,22,"WHI",0,0,0,"somecollege",7280.58177278402,1,0,4.139799,12,8
212,0,20,"WHI",1,1,0,"highschool",23628.4194756554,1,0,3.8885315277307,48,8
213,0,21,"WHI",0,1,0,"highschool",12148.9225967541,1,0,11.147123712828,120,23
214,0,21,"WHI",1,0,0,"highschool",46363.5018726592,1,0,5.83279729159605,48,12
215,0,21,"WHI",0,1,0,"somecollege",33983.7428214732,0,2,0,0,0
216,0,20,"WHI",0,1,1,"highschool",45724.0848938826,1,0,5.57356185641401,60,11
217,0,20,"WHI",1,1,1,"highschool",40691.8501872659,1,2,27.86780928207,120,59
218,0,21,"WHI",1,0,0,"somecollege",14339.5605493134,1,6,234.089597969388,360,501
219,0,21,"WHI",1,1,0,"highschool",12522.8776529338,1,0,3.8885315277307,48,8
220,0,21,"WHI",1,0,0,"highschool",19775.759051186,1,2,25.9235435182047,60,55
221,0,23,"WHI",1,0,0,"collegeplus",74426.2896379526,1,0,11.147123712828,120,23
222,0,24,"WHI",1,1,0,"highschool",59186.4669163546,1,0,3.8885315277307,24,8
223,0,24,"WHI",1,0,0,"highschool",20844.531835206,1,0,16.720685569242,120,35
224,0,23,"WHI",1,1,1,"collegeplus",123959.176029963,1,0,8.36034278462101,180,17
225,0,23,"WHI",0,1,1,"highschool",23205.9887640449,1,12,62.2165044436912,168,133
226,0,23,"WHI",1,1,1,"highschool",35818.8926342072,0,0,0,0,0
227,0,24,"WHI",1,1,0,"somecollege",230665.63545568,1,0,16.720685569242,120,35
228,0,24,"WHI",1,1,1,"highschool",33240.4494382022,1,0,3.8885315277307,48,8
229,0,24,"WHI",1,1,1,"somecollege",64045.5742821473,1,0,2.59235435182047,12,5
230,0,23,"WHI",0,0,1,"somecollege",11798.0511860175,1,0,22.294247425656,120,47
231,0,23,"WHI",0,1,1,"highschool",60700.7540574282,0,0,0,0,0
232,0,23,"WHI",0,1,1,"somecollege",183745.81772784,1,0,1.29617717591023,12,2
233,0,23,"WHI",1,1,1,"somecollege",35281.0436953808,0,1,0,0,0
234,0,23,"WHI",1,0,0,"highschool",80700.4244694132,1,0,3.8885315277307,24,8
235,0,24,"WHI",1,0,0,"somecollege",32086.2671660424,0,0,0,0,0
236,0,23,"WHI",1,0,1,"highschool",45140.0686641698,0,2,0,0,0
237,0,24,"WHI",0,1,1,"collegeplus",29637.0923845194,1,0,4.139799,12,8
238,0,23,"WHI",1,1,0,"highschool",62914.4756554307,1,0,3.8885315277307,24,8
239,0,24,"WHI",0,1,1,"highschool",12250.4906367041,1,2,11.6655945831921,48,24
240,0,23,"WHI",1,0,0,"highschool",29983.3470661673,1,1,15.5541261109228,108,33
241,0,28,"WHI",1,1,0,"collegeplus",67249.5842696629,1,0,2.59235435182047,24,5
242,0,25,"WHI",1,0,1,"highschool",213666.838951311,1,0,4.139799,12,8
243,0,25,"WHI",1,0,0,"highschool",27741.925093633,1,5,38.885315277307,144,83
244,0,26,"WHI",1,1,1,"collegeplus",52356.0162297129,1,0,2.59235435182047,24,5
245,0,27,"WHI",1,1,1,"somecollege",47356.0986267166,1,1,6.48088587955117,72,13
246,0,26,"WHI",1,1,1,"highschool",53182.4107365793,1,0,4.139799,12,8
247,0,27,"WHI",0,0,1,"highschool",62748.2734082397,1,0,11.147123712828,120,23
248,0,26,"WHI",1,0,0,"somecollege",124418.540574282,1,0,5.57356185641401,60,11
249,0,25,"WHI",1,1,0,"somecollege",31479.1672908864,0,0,0,0,0
250,0,27,"WHI",1,0,1,"highschool",43921.252184769,0,0,0,0,0
251,0,25,"WHI",1,1,1,"somecollege",17003.4132334582,0,0,0,0,0
252,0,27,"WHI",1,1,1,"somecollege",74077.7265917603,0,0,0,0,0
253,0,26,"WHI",1,0,1,"highschool",49913.7665418227,1,0,0.648088587955117,12,1
254,0,25,"WHI",0,0,1,"highschool",35456.4794007491,1,0,4.139799,12,8
255,0,25,"WHI",1,0,0,"highschool",24812.6104868914,1,0,3.8885315277307,24,8
256,0,26,"WHI",1,1,1,"somecollege",138388.762796504,1,2,4.139799,12,8
257,0,25,"WHI",1,0,0,"collegeplus",163720.755305868,1,0,2.59235435182047,24,5
258,0,27,"WHI",1,0,0,"somecollege",25299.6754057428,1,0,1.29617717591023,24,2
259,0,25,"WHI",1,1,0,"collegeplus",46074.9563046192,1,0,6.48088587955117,72,13
260,0,28,"WHI",1,0,1,"collegeplus",79250.7715355805,1,1,16.720685569242,180,35
261,0,27,"WHI",1,0,0,"somecollege",6322.61048689139,1,4,22.294247425656,120,47
262,0,27,"WHI",1,1,1,"somecollege",34161.4868913858,1,0,5.57356185641401,120,11
263,0,26,"WHI",0,1,0,"highschool",51467.2958801498,1,0,1.29617717591023,12,2
264,0,28,"WHI",1,0,1,"somecollege",57589.0786516854,1,0,3.24044293977559,72,6
265,0,26,"WHI",1,0,1,"somecollege",50206.9288389513,1,0,2.59235435182047,24,5
266,0,28,"WHI",0,1,1,"collegeplus",75760.5243445693,1,0,0.648088587955117,12,1
267,0,27,"WHI",0,0,0,"collegeplus",28755.2971285893,1,0,4.139799,12,8
268,0,25,"WHI",1,1,1,"collegeplus",31617.6691635456,1,2,4.139799,12,8
269,0,25,"WHI",0,0,1,"collegeplus",27028.6404494382,1,0,4.139799,12,8
270,0,27,"WHI",0,1,1,"highschool",50340.8139825219,1,1,1.94426576386535,12,4
271,0,28,"WHI",1,1,1,"highschool",67796.6666666667,0,0,0,0,0
272,0,27,"WHI",1,0,0,"highschool",28979.2084893883,1,0,4.139799,12,8
273,0,28,"WHI",0,1,1,"highschool",60707.6791510612,1,0,0.648088587955117,12,1
274,0,28,"WHI",0,1,1,"highschool",54892.9088639201,1,0,5.18470870364094,24,11
275,0,26,"WHI",1,1,0,"highschool",27531.8639200999,1,2,22.294247425656,240,47
276,0,25,"WHI",1,0,0,"collegeplus",223502.780274657,1,1,16.720685569242,120,35
277,0,26,"WHI",0,0,1,"collegeplus",67678.9400749064,1,0,1.29617717591023,24,2
278,0,27,"WHI",1,1,1,"highschool",40350.2122347066,1,0,4.139799,12,8
279,0,28,"WHI",0,1,0,"highschool",9362.7265917603,0,0,0,0,0
280,0,29,"WHI",0,1,1,"collegeplus",74029.2509363296,1,0,2.59235435182047,60,5
281,0,30,"WHI",1,1,1,"highschool",67141.0911360799,1,1,11.147123712828,60,23
282,0,29,"WHI",1,1,1,"collegeplus",63480.024968789,1,0,1.29617717591023,24,2
283,0,30,"WHI",1,0,0,"somecollege",27822.7178526841,1,0,16.720685569242,180,35
284,0,29,"WHI",1,1,1,"somecollege",228456.530586767,1,1,11.147123712828,240,23
285,0,30,"WHI",0,0,0,"somecollege",219206.913857678,1,0,50.1620567077261,360,107
286,0,29,"WHI",0,0,1,"collegeplus",48085.5418227216,0,0,0,0,0
287,0,29,"WHI",0,1,1,"collegeplus",40961.9288389513,1,0,2.786780928207,60,5
288,0,30,"WHI",0,1,0,"highschool",279.312109862672,1,0,2.59235435182047,12,5
289,0,29,"WHI",0,0,1,"highschool",131202.823970037,1,0,5.57356185641401,60,11
290,0,29,"WHI",1,1,1,"somecollege",48233.2771535581,1,0,4.139799,12,8
291,0,29,"WHI",0,0,1,"highschool",87547.0337078652,1,0,5.57356185641401,60,11
292,0,29,"WHI",1,1,1,"collegeplus",46982.1435705368,1,0,2.59235435182047,24,5
293,0,30,"WHI",0,1,1,"somecollege",35299.5106117353,1,3,4.139799,12,8
294,0,30,"WHI",0,0,1,"highschool",61014.6916354557,1,1,4.139799,12,8
295,0,29,"WHI",0,1,1,"highschool",72464.1797752809,0,0,0,0,0
296,0,29,"WHI",0,1,1,"highschool",33979.1260923845,0,4,0,0,0
297,0,30,"WHI",0,1,1,"somecollege",201972.664169788,1,1,4.139799,12,8
298,0,29,"WHI",1,0,1,"collegeplus",46984.4519350812,1,0,2.786780928207,60,5
299,0,31,"WHI",1,0,0,"collegeplus",34022.9850187266,1,2,2.59235435182047,24,5
300,0,31,"WHI",1,1,1,"highschool",72157.1672908864,0,0,0,0,0
301,0,34,"WHI",0,1,1,"highschool",230409.406991261,1,0,1.94426576386535,48,4
302,0,32,"WHI",1,1,1,"highschool",52270.606741573,1,0,4.139799,12,8
303,0,33,"WHI",1,0,0,"collegeplus",4831.40699126092,1,0,33.441371138484,180,71
304,0,32,"WHI",0,1,1,"somecollege",61063.1672908864,1,0,6.48088587955117,144,13
305,0,31,"WHI",1,1,1,"highschool",28224.3732833958,0,0,0,0,0
306,0,32,"WHI",1,1,1,"collegeplus",214036.177278402,0,0,0,0,0
307,0,32,"WHI",1,1,1,"highschool",150283.765293383,1,0,5.57356185641401,60,11
308,0,32,"WHI",1,1,1,"highschool",53424.7890137328,1,0,2.59235435182047,24,5
309,0,31,"WHI",0,1,0,"somecollege",5080.71036204744,1,0,4.139799,12,8
310,0,34,"WHI",1,1,1,"highschool",218276.642946317,1,0,39.0149329948981,360,83
311,0,32,"WHI",1,1,1,"collegeplus",153314.647940075,1,0,0.648088587955117,12,1
312,0,31,"WHI",1,1,1,"collegeplus",94601.3957553059,1,0,33.441371138484,180,71
313,0,32,"WHI",1,1,1,"collegeplus",207127.242197253,1,0,4.139799,12,8
314,0,34,"WHI",1,0,1,"collegeplus",107946.051186017,1,0,0.648088587955117,12,1
315,0,33,"WHI",0,0,1,"collegeplus",78952.9925093633,1,0,4.139799,12,8
316,0,31,"WHI",1,1,1,"collegeplus",60601.4943820225,1,0,9.07324023137164,96,19
317,0,33,"WHI",1,1,1,"collegeplus",71423.1073657928,1,0,8.36034278462101,180,17
318,0,34,"WHI",0,0,1,"collegeplus",36684.5293383271,1,6,33.441371138484,120,71
319,0,33,"WHI",1,1,1,"somecollege",65086.6466916355,1,0,4.139799,12,8
320,0,33,"WHI",0,1,1,"collegeplus",55179.1460674157,1,0,4.139799,12,8
321,0,34,"WHI",0,1,1,"highschool",74417.0561797753,1,0,2.786780928207,60,5
322,0,32,"WHI",1,0,1,"highschool",72164.0923845193,1,0,4.139799,12,8
323,0,32,"WHI",1,1,1,"somecollege",126406.042446941,0,0,0,0,0
324,0,33,"WHI",1,0,1,"collegeplus",138829.660424469,1,1,41.8017139231051,300,89
325,0,31,"WHI",1,0,0,"collegeplus",36873.8152309613,1,0,3.8885315277307,48,8
326,0,34,"WHI",0,1,0,"somecollege",22081.8152309613,1,2,16.720685569242,120,35
327,0,33,"WHI",0,0,1,"collegeplus",131687.580524345,1,1,5.57356185641401,60,11
328,0,32,"WHI",1,1,1,"highschool",174032.219725343,1,0,5.57356185641401,60,11
329,0,31,"WHI",1,1,1,"highschool",130369.504369538,1,0,5.57356185641401,60,11
330,0,31,"WHI",1,0,1,"collegeplus",40117.0674157303,1,1,4.139799,12,8
331,0,33,"WHI",1,1,1,"somecollege",69828.0274656679,0,0,0,0,0
332,0,34,"WHI",1,1,1,"highschool",51848.1760299625,1,0,5.57356185641401,60,11
333,0,31,"WHI",0,0,1,"collegeplus",209486.390761548,1,0,0.648088587955117,12,1
334,0,34,"WHI",0,1,1,"highschool",41569.0287141074,0,0,0,0,0
335,0,34,"WHI",1,1,1,"highschool",37397.8139825218,1,0,1.94426576386535,12,4
336,0,31,"WHI",1,0,0,"somecollege",44703.7877652934,1,0,1.29617717591023,12,2
337,0,35,"WHI",1,0,0,"highschool",54962.1598002497,0,0,0,0,0
338,0,38,"WHI",1,0,1,"collegeplus",78352.8177278402,1,1,0.9694768,12,2
339,0,38,"WHI",1,0,1,"highschool",227484.709113608,1,0,0.9694768,12,2
340,0,39,"WHI",0,1,1,"collegeplus",222768.720349563,1,0,1.29617717591023,12,2
341,0,35,"WHI",0,0,1,"highschool",39604.6104868914,1,1,0.9694768,12,2
342,0,39,"WHI",1,0,1,"highschool",173505.912609238,1,0,0.9694768,12,2
343,0,36,"WHI",1,0,0,"collegeplus",132248.513108614,1,1,16.720685569242,180,35
344,0,35,"WHI",0,0,1,"highschool",1128.79026217228,1,0,0.9694768,12,2
345,0,39,"WHI",0,1,1,"highschool",44445.2509363296,1,4,50.1620567077261,180,107
346,0,38,"WHI",1,0,1,"highschool",200405.284644195,1,0,0.9694768,12,2
347,0,37,"WHI",1,1,1,"collegeplus",223851.343320849,1,0,15.5541261109228,108,33
348,0,37,"WHI",1,0,1,"somecollege",139852.265917603,1,0,11.147123712828,240,23
349,0,38,"WHI",1,1,1,"highschool",26308.4307116105,1,0,10.3694174072819,60,22
350,0,39,"WHI",1,0,0,"somecollege",21597.0586766542,0,0,0,0,0
351,0,37,"WHI",1,0,0,"highschool",37490.1485642946,1,0,1.29617717591023,24,2
352,0,37,"WHI",1,0,0,"highschool",34823.9875156055,1,0,16.720685569242,180,35
353,0,39,"WHI",1,0,0,"somecollege",36975.3832709114,0,0,0,0,0
354,0,38,"WHI",1,1,1,"highschool",74620.1922596754,0,0,0,0,0
355,0,35,"WHI",0,1,1,"highschool",78272.024968789,0,0,0,0,0
356,0,38,"WHI",1,0,1,"highschool",48531.0561797753,1,2,41.8017139231051,300,89
357,0,37,"WHI",1,0,1,"collegeplus",212027.900124844,1,0,16.720685569242,180,35
358,0,36,"WHI",0,1,1,"highschool",155865.390761548,1,0,0.9694768,12,2
359,0,37,"WHI",1,1,1,"somecollege",109430.329588015,1,0,0.9694768,12,2
360,0,37,"WHI",1,0,0,"highschool",7640.68664169788,1,0,0.9694768,12,2
361,0,37,"WHI",1,1,1,"collegeplus",76489.9675405743,0,1,0,0,0
362,0,36,"WHI",0,0,1,"highschool",226046.598002497,0,0,0,0,0
363,0,39,"WHI",1,1,1,"highschool",224368.416978777,1,1,8.36034278462101,60,17
364,0,39,"WHI",0,0,1,"highschool",68900.0649188514,1,0,1.29617717591023,12,2
365,0,37,"WHI",1,1,1,"somecollege",150990.124843945,1,0,11.147123712828,240,23
366,0,39,"WHI",1,0,1,"highschool",61642.5667915106,1,0,1.29617717591023,24,2
367,0,39,"WHI",1,1,1,"collegeplus",65340.5667915106,0,0,0,0,0
368,0,36,"WHI",1,1,1,"somecollege",90790.2858926342,1,0,1.94426576386535,48,4
369,0,35,"WHI",1,0,1,"highschool",215266.535580524,1,0,0.648088587955117,12,1
370,0,36,"WHI",0,1,1,"collegeplus",88927.4357053683,1,0,44.588494851312,240,95
371,0,38,"WHI",0,1,0,"somecollege",33353.5593008739,1,0,11.147123712828,60,23
372,0,38,"WHI",1,1,1,"highschool",51231.8426966292,1,0,8.36034278462101,60,17
373,0,39,"WHI",0,1,1,"somecollege",77279.4282147316,1,0,3.8885315277307,24,8
374,0,39,"WHI",1,0,1,"collegeplus",63290.7390761548,1,1,0.9694768,12,2
375,0,36,"WHI",1,0,1,"somecollege",61552.5405742822,0,0,0,0,0
376,0,37,"WHI",1,0,0,"somecollege",52808.4556803995,1,1,97.5373324872451,300,209
377,0,43,"WHI",1,0,1,"highschool",58013.8177278402,0,0,0,0,0
378,0,42,"WHI",1,1,1,"collegeplus",85891.936329588,1,0,11.147123712828,120,23
379,0,44,"WHI",1,0,1,"collegeplus",71924.0224719101,1,0,0.9694768,12,2
380,0,41,"WHI",1,1,1,"collegeplus",162134.90886392,1,0,39.0149329948981,360,83
381,0,44,"WHI",1,0,0,"highschool",5036.85143570537,1,5,33.441371138484,180,71
382,0,41,"WHI",1,0,0,"somecollege",58655.5430711611,1,0,39.0149329948981,360,83
383,0,42,"WHI",1,0,1,"collegeplus",155842.307116105,1,0,8.36034278462101,180,17
384,0,41,"WHI",0,0,1,"somecollege",62113.4731585518,1,1,6.48088587955117,72,13
385,0,40,"WHI",0,0,0,"highschool",16315.5205992509,1,0,0.9694768,12,2
386,0,44,"WHI",1,1,1,"somecollege",40223.252184769,1,0,0.9694768,12,2
387,0,43,"WHI",1,0,1,"somecollege",223729,1,0,1.29617717591023,24,2
388,0,42,"WHI",1,1,1,"somecollege",229629.179775281,1,0,0.9694768,12,2
389,0,42,"WHI",0,0,1,"collegeplus",62367.393258427,1,0,1.29617717591023,24,2
390,0,40,"WHI",1,0,1,"somecollege",189689.856429463,1,0,5.57356185641401,60,11
391,0,40,"WHI",1,0,1,"highschool",3153.22596754057,1,1,16.720685569242,180,35
392,0,40,"WHI",1,1,1,"somecollege",228034.099875156,1,0,1.29617717591023,24,2
393,0,43,"WHI",1,0,1,"highschool",34179.9538077403,1,1,0.9694768,12,2
394,0,40,"WHI",1,0,0,"somecollege",74740.22721598,1,0,0.9694768,12,2
395,0,44,"WHI",1,1,1,"highschool",65504.4606741573,1,3,33.441371138484,240,71
396,0,43,"WHI",0,0,0,"highschool",7809.19725343321,1,0,0.9694768,12,2
397,0,43,"WHI",0,0,1,"highschool",40271.7278401998,1,0,7.7770630554614,84,16
398,0,43,"WHI",1,0,0,"somecollege",34937.0973782772,0,0,0,0,0
399,0,44,"WHI",0,1,0,"highschool",9861.33333333333,0,0,0,0,0
400,0,40,"WHI",1,1,0,"collegeplus",208932.383270911,1,0,1.94426576386535,48,4
401,0,44,"WHI",1,1,1,"highschool",45417.0724094881,1,0,0.9694768,12,2
402,0,42,"WHI",1,1,1,"collegeplus",79712.4444444445,1,0,1.29617717591023,24,2
403,0,43,"WHI",0,1,1,"somecollege",152670.61423221,0,0,0,0,0
404,0,41,"WHI",1,0,0,"somecollege",7626.83645443196,1,0,0.9694768,12,2
405,0,40,"WHI",1,1,1,"highschool",77408.6966292135,1,0,1.29617717591023,24,2
406,0,41,"WHI",0,0,0,"highschool",10706.1947565543,1,0,0.9694768,12,2
407,0,42,"WHI",1,0,1,"highschool",71810.9126092385,1,3,33.441371138484,240,71
408,0,43,"WHI",1,0,1,"somecollege",47531.5343320849,1,0,0.648088587955117,12,1
409,0,47,"WHI",1,0,1,"somecollege",76349.1573033708,1,0,3.8885315277307,48,8
410,0,46,"WHI",1,1,1,"collegeplus",69631.8164794007,1,0,0.9694768,12,2
411,0,45,"WHI",1,0,0,"highschool",22931.2933832709,0,0,0,0,0
412,0,49,"WHI",1,0,0,"somecollege",35830.4344569288,1,0,5.57356185641401,60,11
413,0,47,"WHI",1,0,0,"highschool",26580.8177278402,0,0,0,0,0
414,0,47,"WHI",0,0,1,"highschool",228943.595505618,1,0,0.9694768,12,2
415,0,47,"WHI",1,1,1,"highschool",71249.9800249688,1,0,1.29617717591023,24,2
416,0,48,"WHI",0,0,0,"highschool",9729.75655430712,0,0,0,0,0
417,0,45,"WHI",1,0,0,"highschool",91838.2833957553,1,0,39.0149329948981,360,83
418,0,49,"WHI",0,0,1,"highschool",46444.2946317104,1,0,0.9694768,12,2
419,0,49,"WHI",0,0,1,"collegeplus",72134.0836454432,1,0,0.9694768,12,2
420,0,47,"WHI",1,0,1,"highschool",49371.3008739076,1,1,0.9694768,12,2
421,0,47,"WHI",1,1,1,"highschool",38094.9400749064,1,1,5.57356185641401,120,11
422,0,47,"WHI",1,0,0,"somecollege",71455.4244694132,0,0,0,0,0
423,0,49,"WHI",1,1,1,"highschool",137056.836454432,1,0,0.9694768,12,2
424,0,46,"WHI",1,0,1,"highschool",67057.9900124844,1,0,5.57356185641401,60,11
425,0,49,"WHI",1,0,0,"highschool",14092.5655430712,1,0,0.9694768,12,2
426,0,45,"WHI",0,0,1,"highschool",37799.4694132335,0,0,0,0,0
427,0,49,"WHI",0,0,0,"highschool",29064.6179775281,1,2,16.720685569242,180,35
428,0,47,"WHI",1,0,0,"somecollege",59338.8189762797,1,0,0.9694768,12,2
429,0,48,"WHI",1,0,0,"somecollege",32270.936329588,0,0,0,0,0
430,0,48,"WHI",1,0,1,"highschool",222870.288389513,1,0,0.9694768,12,2
431,0,47,"WHI",1,0,1,"somecollege",69460.9975031211,1,0,0.9694768,12,2
432,0,46,"WHI",0,0,0,"highschool",26862.4382022472,1,2,16.720685569242,180,35
433,0,48,"WHI",1,1,1,"somecollege",69604.1161048689,1,0,0.9694768,12,2
434,0,45,"WHI",0,0,1,"somecollege",50359.2808988764,1,0,11.147123712828,120,23
435,0,47,"WHI",0,0,0,"highschool",18573.1011235955,0,0,0,0,0
436,0,48,"WHI",1,0,1,"highschool",44666.8539325843,0,0,0,0,0
437,0,47,"WHI",1,0,0,"highschool",27414.1373283396,1,0,0.9694768,12,2
438,0,49,"WHI",1,0,0,"collegeplus",70268.925093633,0,0,0,0,0
439,0,45,"WHI",0,0,1,"somecollege",179655.395755306,1,0,2.786780928207,60,5
440,0,49,"WHI",1,0,1,"collegeplus",215732.825218477,1,0,39.0149329948981,360,83
441,0,49,"WHI",1,0,1,"highschool",28628.3370786517,1,0,0.9694768,12,2
442,0,56,"WHI",0,0,1,"highschool",42076.8689138577,0,1,0,0,0
443,0,57,"WHI",1,1,1,"highschool",34133.7865168539,0,0,0,0,0
444,0,52,"WHI",0,1,1,"somecollege",206760.212234707,1,0,5.57356185641401,120,11
445,0,59,"WHI",1,0,1,"highschool",54779.7990012484,1,0,0.9694768,12,2
446,0,58,"WHI",0,0,1,"collegeplus",80127.950062422,1,0,0.9694768,12,2
447,0,56,"WHI",0,1,1,"somecollege",225427.956304619,0,0,0,0,0
448,0,51,"WHI",1,1,0,"highschool",29318.5380774032,1,0,0.9694768,12,2
449,0,51,"WHI",0,0,1,"highschool",64040.9575530587,1,0,5.83279729159605,48,12
450,0,59,"WHI",1,1,1,"highschool",51633.4981273408,0,0,0,0,0
451,0,53,"WHI",0,1,1,"highschool",297.779026217228,1,0,1.29617717591023,24,2
452,0,54,"WHI",1,0,1,"highschool",53556.3657927591,1,1,37.5891381013968,360,80
453,0,59,"WHI",0,0,1,"highschool",26617.7515605493,0,0,0,0,0
454,0,54,"WHI",1,0,0,"highschool",193.902621722846,0,0,0,0,0
455,0,56,"WHI",1,0,1,"somecollege",217928.079900125,1,0,0.9694768,12,2
456,0,59,"WHI",1,0,0,"highschool",163766.922596754,1,0,2.786780928207,60,5
457,0,59,"WHI",0,1,1,"highschool",65495.22721598,1,0,11.147123712828,120,23
458,0,58,"WHI",0,0,0,"highschool",218121.982521848,1,1,33.441371138484,240,71
459,0,53,"WHI",0,0,0,"highschool",11458.7215980025,0,0,0,0,0
460,0,51,"WHI",0,0,1,"highschool",29447.8064918851,1,0,3.8885315277307,24,8
461,0,55,"WHI",1,1,1,"highschool",23672.2784019975,1,0,0.9694768,12,2
462,0,55,"WHI",1,0,1,"collegeplus",177515.541822722,1,0,39.0149329948981,360,83
463,0,58,"WHI",1,0,1,"highschool",67526.5880149813,1,0,0.648088587955117,12,1
464,0,54,"WHI",0,0,1,"somecollege",98040.8589263421,1,0,5.57356185641401,120,11
465,0,50,"WHI",1,1,1,"collegeplus",152788.34082397,0,1,0,0,0
466,0,54,"WHI",1,0,1,"collegeplus",94576.0037453184,1,0,0.9694768,12,2
467,0,56,"WHI",1,0,0,"somecollege",153510.858926342,1,0,2.59235435182047,60,5
468,0,58,"WHI",1,0,1,"highschool",11094,0,0,0,0,0
469,0,51,"WHI",0,0,1,"highschool",26560.0424469413,0,0,0,0,0
470,0,57,"WHI",0,1,1,"collegeplus",74548.6329588015,1,0,0.9694768,12,2
471,0,52,"WHI",1,0,0,"highschool",32661.049937578,1,0,0.648088587955117,12,1
472,0,52,"WHI",0,0,1,"highschool",14330.3270911361,1,0,2.786780928207,60,5
473,0,52,"WHI",0,0,1,"highschool",35551.1223470662,0,0,0,0,0
474,0,56,"WHI",0,0,1,"collegeplus",220153.343320849,1,0,19.507466497449,360,41
475,0,59,"WHI",1,0,0,"highschool",15461.4257178527,0,0,0,0,0
476,0,57,"WHI",0,1,1,"highschool",63660.0774032459,1,0,3.24044293977559,72,6
477,0,58,"WHI",0,1,1,"somecollege",26266.8801498127,0,0,0,0,0
478,0,56,"WHI",1,0,1,"somecollege",89155.9637952559,1,0,1.29617717591023,24,2
479,0,53,"WHI",0,0,1,"highschool",40357.1373283396,0,0,0,0,0
480,0,52,"WHI",1,1,1,"highschool",111053.109862672,0,0,0,0,0
481,0,59,"WHI",0,1,1,"highschool",28118.1885143571,1,0,16.720685569242,360,35
482,0,51,"WHI",1,1,1,"highschool",57198.9650436954,0,0,0,0,0
483,0,55,"WHI",0,0,1,"highschool",37042.3258426966,1,3,12.9617717591023,60,27
484,0,54,"WHI",1,1,1,"somecollege",89492.9850187266,1,0,4.53662011568582,96,9
485,0,53,"WHI",0,0,0,"highschool",19618.7902621723,1,0,0.9694768,12,2
486,0,53,"WHI",1,0,1,"highschool",35664.2322097378,1,0,1.29617717591023,24,2
487,0,52,"WHI",1,0,0,"collegeplus",43076.3907615481,1,0,39.0149329948981,360,83
488,0,55,"WHI",1,0,1,"highschool",51423.4369538077,1,4,15.5541261109228,60,33
489,0,55,"WHI",0,0,0,"highschool",6749.65792759051,1,0,0.9694768,12,2
490,0,52,"WHI",1,1,1,"somecollege",65705.2883895131,1,0,5.57356185641401,60,11
491,0,59,"WHI",1,0,0,"highschool",29087.7016229713,0,0,0,0,0
492,0,54,"WHI",1,1,1,"highschool",57635.2459425718,0,0,0,0,0
493,0,59,"WHI",1,1,1,"highschool",213983.084893883,1,0,1.94426576386535,48,4
494,0,51,"WHI",1,0,1,"collegeplus",110289.041198502,0,0,0,0,0
495,0,56,"WHI",0,1,1,"somecollege",92263.0224719101,1,1,7.7770630554614,60,16
496,0,50,"WHI",1,0,1,"highschool",11763.4257178527,0,0,0,0,0
497,0,53,"WHI",0,1,1,"highschool",53000.049937578,0,0,0,0,0
498,0,57,"WHI",1,0,0,"collegeplus",203937.082397004,1,0,7.7770630554614,60,16
499,0,55,"WHI",1,1,1,"highschool",32291.7116104869,0,0,0,0,0
500,0,53,"WHI",1,0,0,"highschool",11054.7578027466,0,0,0,0,0
501,0,61,"WHI",0,0,1,"highschool",6389.55305867665,1,0,6.48088587955117,144,13
502,0,79,"WHI",0,0,0,"highschool",19387.9538077403,1,0,0.9694768,12,2
503,0,71,"WHI",0,0,1,"highschool",34371.5480649189,0,0,0,0,0
504,0,68,"WHI",0,0,0,"highschool",17538.9538077403,1,1,0.648088587955117,12,1
505,0,68,"WHI",0,0,0,"collegeplus",42967.897627965,1,0,0.648088587955117,12,1
506,0,63,"WHI",0,0,0,"highschool",6848.91760299625,0,0,0,0,0
507,0,68,"WHI",1,0,1,"highschool",73124.3720349563,1,0,39.0149329948981,360,83
508,0,80,"WHI",0,0,1,"somecollege",57390.5593008739,0,0,0,0,0
509,0,69,"WHI",0,0,0,"somecollege",35463.404494382,1,0,5.18470870364094,60,11
510,0,74,"WHI",0,0,0,"highschool",33175.8152309613,1,0,1.29617717591023,12,2
511,0,67,"WHI",0,0,0,"highschool",21317.7465667915,1,0,2.27256,12,4
512,0,61,"WHI",0,0,0,"highschool",32554.8651685393,1,0,1.94426576386535,48,4
513,0,67,"WHI",0,1,0,"highschool",4041.94631710362,0,0,0,0,0
514,0,78,"WHI",0,0,1,"highschool",4051.1797752809,1,0,2.27256,12,4
515,0,66,"WHI",0,0,0,"highschool",15189.038701623,0,0,0,0,0
516,0,74,"WHI",0,0,0,"highschool",9889.03370786517,1,0,2.59235435182047,24,5
517,0,64,"WHI",0,0,1,"somecollege",26373.0649188514,0,0,0,0,0
518,0,70,"WHI",0,1,1,"highschool",31580.7353308365,1,0,11.147123712828,120,23
519,0,67,"WHI",0,0,1,"somecollege",39911.6229712859,1,0,2.27256,12,4
520,0,66,"WHI",1,0,1,"highschool",5937.11360799001,0,2,0,0,0
521,0,65,"WHI",0,0,0,"highschool",6657.32334581773,0,0,0,0,0
522,0,64,"WHI",0,0,1,"collegeplus",154720.441947566,1,0,39.0149329948981,360,83
523,0,62,"WHI",0,0,1,"collegeplus",74684.8264669164,0,0,0,0,0
524,0,65,"WHI",0,0,1,"collegeplus",29383.1722846442,0,0,0,0,0
525,0,68,"WHI",0,0,0,"somecollege",20791.4394506866,0,0,0,0,0
526,0,64,"WHI",0,0,1,"highschool",46114.1985018727,0,0,0,0,0
527,0,67,"WHI",1,0,0,"collegeplus",163545.319600499,1,0,39.0149329948981,360,83
528,0,65,"WHI",0,0,1,"highschool",46684.3645443196,1,0,2.27256,12,4
529,0,78,"WHI",0,0,1,"somecollege",40103.2172284644,1,0,0.9694768,12,2
530,0,71,"WHI",0,0,1,"somecollege",30943.6267166042,0,0,0,0,0
531,0,66,"WHI",0,0,1,"highschool",32924.2034956305,1,0,2.27256,12,4
532,0,64,"WHI",0,1,1,"highschool",230012.368289638,0,0,0,0,0
533,0,64,"WHI",0,0,0,"somecollege",26269.1885143571,0,0,0,0,0
534,0,66,"WHI",0,0,1,"highschool",17264.2584269663,1,0,2.27256,12,4
535,0,66,"WHI",0,0,0,"highschool",34422.3320848939,1,0,1.94426576386535,48,4
536,0,63,"WHI",0,0,1,"highschool",73101.2883895131,1,0,5.57356185641401,120,11
537,0,75,"WHI",0,0,0,"highschool",33215.0574282147,1,0,0.9694768,12,2
538,0,60,"WHI",0,0,0,"highschool",3153.22596754057,0,0,0,0,0
539,0,68,"WHI",0,0,0,"highschool",29138.4856429463,1,0,2.59235435182047,60,5
540,0,68,"WHI",0,0,0,"highschool",49119.6891385768,1,0,0.9694768,12,2
541,0,63,"WHI",0,0,0,"highschool",24503.2896379526,1,0,3.8885315277307,48,8
542,0,76,"WHI",0,0,1,"highschool",35846.5930087391,1,0,0.9694768,12,2
543,0,69,"WHI",1,0,0,"highschool",14288.7765293383,1,0,8.36034278462101,180,17
544,0,78,"WHI",0,0,1,"collegeplus",79317.7141073658,0,1,0,0,0
545,0,80,"WHI",0,1,1,"highschool",52494.518102372,1,0,1.29617717591023,24,2
546,0,67,"WHI",0,0,0,"highschool",5113.02746566792,1,0,19.507466497449,360,41
547,0,63,"WHI",0,0,0,"highschool",40714.9338327091,1,0,5.57356185641401,120,11
548,0,60,"WHI",1,0,1,"highschool",31146.7627965044,0,0,0,0,0
549,0,70,"WHI",0,0,0,"highschool",15477.5842696629,1,0,2.27256,12,4
550,0,72,"WHI",0,0,1,"highschool",38669.7228464419,0,0,0,0,0
551,0,71,"WHI",0,0,1,"highschool",159708.81772784,1,0,0.9694768,12,2
552,0,63,"WHI",0,0,1,"somecollege",46640.5056179775,0,0,0,0,0
553,0,62,"WHI",0,0,1,"highschool",9815.16604244694,0,0,0,0,0
554,0,76,"WHI",0,0,1,"highschool",33575.1622971286,0,0,0,0,0
555,0,66,"WHI",0,0,0,"highschool",2680.01123595506,0,0,0,0,0
556,0,80,"WHI",1,1,0,"highschool",40927.3033707865,1,0,0.9694768,12,2
557,0,64,"WHI",0,0,1,"highschool",34422.3320848939,1,0,39.0149329948981,360,83
558,0,65,"WHI",0,0,1,"highschool",27891.9687890137,1,0,19.507466497449,360,41
559,0,69,"WHI",0,0,1,"highschool",57817.606741573,1,0,0.9694768,12,2
560,0,77,"WHI",0,0,1,"highschool",45830.2696629214,1,0,13.933904641035,300,29
561,0,75,"WHI",1,0,0,"collegeplus",27866.5767790262,1,0,2.786780928207,60,5
562,0,71,"WHI",0,0,0,"highschool",6975.87765293383,1,0,0.9694768,12,2
563,0,67,"WHI",0,1,1,"highschool",36908.4406991261,1,0,13.933904641035,300,29
564,0,76,"WHI",0,0,1,"highschool",24567.9238451935,1,0,58.5223994923471,360,125
565,0,64,"WHI",0,0,1,"highschool",5960.19725343321,0,0,0,0,0
566,0,80,"WHI",1,0,1,"collegeplus",49749.872659176,0,0,0,0,0
567,0,75,"WHI",1,0,1,"highschool",218193.541822722,1,0,25.081028353863,180,53
568,0,70,"WHI",0,0,0,"collegeplus",44565.2858926342,1,0,0.648088587955117,12,1
569,0,68,"WHI",0,0,0,"highschool",10459.1997503121,1,0,16.720685569242,360,35
570,0,70,"WHI",0,0,1,"highschool",37483.2234706617,0,0,0,0,0
571,0,67,"WHI",0,0,0,"somecollege",20452.1098626717,1,0,13.933904641035,300,29
572,0,79,"WHI",0,0,0,"highschool",1355.00998751561,0,0,0,0,0
573,0,66,"WHI",0,0,0,"somecollege",32044.7166042447,1,0,2.27256,12,4
574,0,65,"WHI",0,0,0,"highschool",16816.4357053683,0,0,0,0,0
575,0,76,"WHI",0,0,1,"highschool",38385.7940074906,1,0,11.147123712828,120,23
576,0,72,"WHI",0,0,0,"highschool",24145.493133583,1,0,1.94426576386535,48,4
577,0,70,"WHI",0,0,0,"highschool",8143.91011235955,1,0,2.27256,12,4
578,0,61,"WHI",0,0,0,"highschool",9348.87640449438,1,0,5.57356185641401,120,11
579,0,74,"WHI",1,0,0,"collegeplus",120618.972534332,1,0,5.57356185641401,60,11
580,0,76,"WHI",0,0,0,"collegeplus",9210.37453183521,1,0,2.27256,12,4
581,0,73,"WHI",0,0,0,"highschool",16209.3358302122,1,0,2.27256,12,4
582,0,66,"WHI",0,0,0,"highschool",10650.7940074906,0,0,0,0,0
583,0,61,"WHI",1,0,0,"collegeplus",65848.4069912609,1,0,0.648088587955117,12,1
584,0,60,"WHI",0,0,0,"collegeplus",25043.4469413233,1,0,1.29617717591023,12,2
585,0,75,"WHI",1,0,0,"highschool",20641.3957553059,1,0,11.6655945831921,132,24
586,0,61,"WHI",0,0,1,"collegeplus",55834.7215980025,1,0,0.648088587955117,12,1
587,0,65,"WHI",0,0,0,"highschool",13379.2808988764,0,0,0,0,0
588,0,79,"WHI",0,0,0,"highschool",2536.89263420724,0,0,0,0,0
589,0,66,"WHI",0,0,1,"highschool",14150.2746566792,1,0,0.9694768,12,2
590,0,67,"WHI",0,0,0,"highschool",2042.90262172285,0,0,0,0,0
591,0,68,"WHI",1,1,0,"highschool",35024.8152309613,1,0,0.9694768,12,2
592,0,62,"WHI",0,0,1,"highschool",18993.2234706617,1,0,2.27256,12,4
593,0,73,"WHI",0,0,0,"highschool",10103.7116104869,1,0,0.648088587955117,12,1
594,0,68,"WHI",0,0,0,"collegeplus",51130.2746566792,0,0,0,0,0
595,0,62,"WHI",0,0,1,"highschool",19784.9925093633,0,0,0,0,0
596,0,68,"WHI",0,0,0,"highschool",17769.7902621723,1,0,2.27256,12,4
597,0,78,"WHI",0,0,1,"highschool",41765.2397003745,1,0,2.27256,12,4
598,0,63,"WHI",0,0,1,"highschool",3381.75405742821,1,0,2.27256,12,4
599,0,60,"WHI",0,0,1,"highschool",5373.87265917603,1,0,0.9694768,12,2
600,0,66,"WHI",1,1,0,"highschool",37363.1885143571,1,0,0.9694768,12,2
601,0,65,"WHI",0,0,0,"highschool",25705.9475655431,1,0,1.29617717591023,12,2
602,0,78,"WHI",0,0,0,"highschool",20405.9425717853,1,0,2.59235435182047,24,5
603,0,68,"WHI",0,0,0,"somecollege",24627.9413233458,0,0,0,0,0
604,0,70,"WHI",1,0,0,"somecollege",27056.34082397,0,0,0,0,0
605,0,80,"WHI",0,0,0,"highschool",30830.5168539326,1,0,2.27256,12,4
606,0,79,"WHI",0,0,1,"highschool",34348.4644194757,1,0,2.786780928207,60,5
607,0,65,"WHI",0,0,0,"highschool",6281.05992509363,1,0,16.720685569242,360,35
608,0,80,"WHI",1,1,1,"highschool",46171.9076154807,1,0,39.0149329948981,360,83
609,0,77,"WHI",0,0,0,"somecollege",30172.6329588015,1,0,2.27256,12,4
610,0,60,"WHI",0,0,1,"highschool",17848.2746566792,1,0,0.9694768,12,2
611,1,19,"WHI",1,1,0,"highschool",199064.124843945,1,4,50.1620567077261,180,107
612,1,18,"WHI",1,0,0,"somecollege",9900.57553058677,1,2,22.294247425656,120,47
613,1,18,"WHI",1,0,0,"somecollege",11950.4032459426,1,2,22.294247425656,120,47
614,1,19,"WHI",1,1,0,"highschool",107558.245942572,1,0,5.83279729159605,48,12
615,1,19,"WHI",1,1,0,"highschool",214710.219725343,1,4,50.1620567077261,180,107
616,1,19,"WHI",1,0,0,"somecollege",20154.3308364544,1,0,8.474555,12,18
617,1,19,"WHI",1,0,0,"somecollege",45758.7103620474,1,0,8.474555,12,18
618,1,19,"WHI",1,1,0,"highschool",51091.0324594257,1,2,9.07324023137164,24,19
619,1,18,"WHI",0,0,0,"somecollege",22257.2509363296,0,0,0,0,0
620,1,22,"WHI",1,1,0,"highschool",56714.2084893883,1,2,7.7770630554614,48,16
621,1,20,"WHI",1,1,0,"highschool",54680.5393258427,1,2,7.7770630554614,48,16
622,1,21,"WHI",1,0,0,"somecollege",31975.4656679151,1,0,7.7770630554614,60,16
623,1,21,"WHI",0,0,0,"highschool",32023.9413233458,1,3,100.324113415452,180,214
624,1,22,"WHI",1,1,0,"highschool",24565.6154806492,1,2,7.7770630554614,24,16
625,1,21,"WHI",0,0,1,"highschool",29327.7715355805,1,1,9.72132881932676,72,20
626,1,20,"WHI",0,0,0,"highschool",96191.8589263421,1,0,8.474555,12,18
627,1,21,"WHI",1,0,0,"highschool",36393.6754057428,1,0,11.147123712828,60,23
628,1,22,"WHI",0,0,0,"collegeplus",42166.8951310861,1,1,16.720685569242,120,35
629,1,22,"WHI",1,0,0,"highschool",189819.124843945,1,2,16.720685569242,60,35
630,1,22,"WHI",1,0,0,"somecollege",4512.85268414482,1,1,22.294247425656,120,47
631,1,20,"WHI",0,0,0,"somecollege",56695.7415730337,1,0,8.36034278462101,60,17
632,1,21,"WHI",0,1,0,"somecollege",87053.0436953808,1,4,16.720685569242,60,35
633,1,21,"WHI",1,1,1,"highschool",40624.9076154807,1,5,51.8470870364094,144,111
634,1,20,"WHI",1,1,0,"highschool",46280.4007490637,1,2,7.7770630554614,48,16
635,1,22,"WHI",0,0,0,"collegeplus",40084.7503121099,1,4,16.2022146988779,72,34
636,1,21,"WHI",1,0,0,"somecollege",210116.574282147,1,0,8.36034278462101,60,17
637,1,20,"WHI",0,0,0,"highschool",123587.529338327,0,0,0,0,0
638,1,21,"WHI",1,0,0,"somecollege",230407.098626717,1,5,25.081028353863,180,53
639,1,22,"WHI",1,1,0,"somecollege",114723.40948814,1,0,1.29617717591023,12,2
640,1,22,"WHI",1,0,0,"highschool",52526.8352059925,1,2,7.7770630554614,48,16
641,1,20,"WHI",1,0,0,"highschool",17162.6903870162,1,20,100.324113415452,360,214
642,1,21,"WHI",1,0,0,"highschool",2202.1797752809,1,20,100.324113415452,360,214
643,1,22,"WHI",1,1,0,"somecollege",179708.488139825,1,0,8.36034278462101,60,17
644,1,20,"WHI",1,1,0,"somecollege",49115.0724094881,1,2,19.4426576386535,72,41
645,1,24,"WHI",1,0,0,"somecollege",24237.8277153558,1,1,22.294247425656,120,47
646,1,23,"WHI",1,1,1,"collegeplus",32081.6504369538,0,0,0,0,0
647,1,23,"WHI",1,1,1,"collegeplus",42042.2434456929,1,1,8.474555,12,18
648,1,23,"WHI",1,1,0,"somecollege",45024.6504369538,1,4,19.4426576386535,72,41
649,1,23,"WHI",1,1,1,"highschool",24997.279650437,1,0,3.8885315277307,24,8
650,1,24,"WHI",1,0,0,"collegeplus",41797.556803995,1,2,8.474555,12,18
651,1,24,"WHI",1,0,0,"somecollege",42605.4843945069,1,5,69.6695232051751,300,149
652,1,24,"WHI",1,1,1,"highschool",28035.0873907615,1,0,3.8885315277307,24,8
653,1,23,"WHI",1,0,0,"somecollege",11858.0686641698,1,5,66.8827422769681,120,143
654,1,24,"WHI",1,1,1,"somecollege",28933.0411985019,1,1,8.474555,12,18
655,1,23,"WHI",1,1,1,"highschool",30354.9937578027,1,0,3.8885315277307,24,8
656,1,23,"WHI",1,1,1,"highschool",32778.7765293383,1,0,3.8885315277307,24,8
657,1,23,"WHI",1,0,0,"collegeplus",41912.975031211,1,2,22.294247425656,240,47
658,1,24,"WHI",1,1,0,"somecollege",39918.5480649189,1,5,69.6695232051751,300,149
659,1,24,"WHI",1,0,1,"collegeplus",39512.2759051186,1,8,8.474555,12,18
660,1,23,"WHI",1,1,1,"highschool",30551.2047440699,1,0,3.8885315277307,24,8
661,1,23,"WHI",1,1,0,"highschool",39900.0811485643,1,10,194.426576386535,216,416
662,1,24,"WHI",1,0,0,"somecollege",83045.7228464419,1,0,9.72132881932676,72,20
663,1,24,"WHI",1,1,0,"somecollege",44973.8664169788,1,4,19.4426576386535,72,41
664,1,23,"WHI",0,0,0,"somecollege",168582.171036205,1,0,136.552265482143,360,292
665,1,24,"WHI",1,0,1,"highschool",53803.3607990013,1,3,50.1620567077261,180,107
666,1,27,"WHI",1,0,0,"collegeplus",170839.751560549,1,1,22.294247425656,120,47
667,1,28,"WHI",1,1,1,"highschool",71642.4019975031,1,2,29.1639864579803,216,62
668,1,26,"WHI",1,1,1,"highschool",33032.6966292135,1,0,8.474555,12,18
669,1,28,"WHI",1,1,1,"somecollege",78068.8888888889,1,1,8.36034278462101,180,17
670,1,28,"WHI",0,1,1,"collegeplus",12947.6167290886,1,0,11.147123712828,120,23
671,1,28,"WHI",0,1,1,"somecollege",25805.2072409488,1,0,16.720685569242,360,35
672,1,25,"WHI",1,0,0,"highschool",34260.7465667915,1,1,44.588494851312,120,95
673,1,28,"WHI",1,1,1,"collegeplus",103068.47690387,1,0,27.86780928207,300,59
674,1,25,"WHI",1,0,0,"highschool",192785.373283396,1,10,44.588494851312,240,95
675,1,28,"WHI",1,0,0,"somecollege",49191.2484394507,1,0,16.720685569242,120,35
676,1,28,"WHI",1,1,1,"somecollege",65225.1485642946,1,0,16.720685569242,120,35
677,1,27,"WHI",1,1,1,"somecollege",45537.1073657928,1,2,8.474555,12,18
678,1,27,"WHI",1,0,0,"highschool",59784.3333333333,1,2,33.441371138484,180,71
679,1,26,"WHI",1,1,1,"collegeplus",46049.5642946317,0,0,0,0,0
680,1,26,"WHI",0,1,1,"somecollege",44936.9325842697,1,0,2.59235435182047,12,5
681,1,27,"WHI",1,0,1,"highschool",44341.3745318352,1,0,8.474555,12,18
682,1,28,"WHI",1,0,0,"highschool",41218.1573033708,1,1,117.044798984694,360,250
683,1,25,"WHI",1,1,0,"somecollege",51333.4107365793,1,1,33.441371138484,120,71
684,1,26,"WHI",1,0,0,"collegeplus",62706.722846442,1,0,8.36034278462101,60,17
685,1,25,"WHI",1,1,1,"highschool",40209.4019975031,1,1,33.441371138484,180,71
686,1,27,"WHI",1,0,0,"collegeplus",65829.9400749064,1,0,6.48088587955117,72,13
687,1,28,"WHI",0,0,0,"collegeplus",26915.5305867665,1,0,2.786780928207,60,5
688,1,25,"WHI",1,1,1,"collegeplus",47303.0062421973,1,4,16.720685569242,120,35
689,1,27,"WHI",1,1,1,"highschool",58683.2434456929,1,1,16.720685569242,180,35
690,1,25,"WHI",1,1,1,"collegeplus",84091.4119850187,1,1,11.147123712828,120,23
691,1,26,"WHI",1,1,1,"collegeplus",48692.6416978777,1,4,16.720685569242,120,35
692,1,25,"WHI",1,1,1,"highschool",38678.9563046192,1,3,41.8017139231051,180,89
693,1,27,"WHI",1,1,1,"highschool",38713.581772784,1,0,8.474555,12,18
694,1,25,"WHI",1,1,1,"somecollege",57418.2596754057,1,2,8.474555,12,18
695,1,28,"WHI",1,1,1,"highschool",42081.4856429463,1,30,117.044798984694,360,250
696,1,28,"WHI",1,1,0,"somecollege",57344.3920099875,1,0,16.720685569242,120,35
697,1,25,"WHI",1,0,0,"collegeplus",31823.11360799,1,0,39.0149329948981,360,83
698,1,25,"WHI",1,1,1,"highschool",26070.6691635456,1,1,8.474555,12,18
699,1,25,"WHI",1,1,1,"highschool",26167.620474407,0,0,0,0,0
700,1,28,"WHI",0,1,1,"highschool",13169.2197253433,0,1,0,0,0
701,1,25,"WHI",0,0,0,"highschool",29565.5330836454,1,0,8.474555,12,18
702,1,26,"WHI",1,0,1,"collegeplus",56850.4019975031,1,0,8.474555,12,18
703,1,28,"WHI",1,0,1,"collegeplus",73927.6828963795,0,1,0,0,0
704,1,28,"WHI",1,0,0,"somecollege",33526.6866416979,0,0,0,0,0
705,1,30,"WHI",1,1,1,"somecollege",20789.1310861423,0,0,0,0,0
706,1,30,"WHI",1,1,0,"collegeplus",90467.1148564295,1,0,16.720685569242,120,35
707,1,29,"WHI",1,1,1,"somecollege",46141.8988764045,1,2,8.474555,12,18
708,1,30,"WHI",1,0,0,"highschool",18443.8327091136,1,5,19.4426576386535,72,41
709,1,29,"WHI",0,0,0,"somecollege",5773.21972534332,1,0,25.081028353863,180,53
710,1,29,"WHI",1,0,0,"collegeplus",131279,0,0,0,0,0
711,1,29,"WHI",1,0,0,"collegeplus",33282,1,1,16.720685569242,60,35
712,1,30,"WHI",1,1,1,"highschool",50620.1260923845,0,4,0,0,0
713,1,30,"WHI",1,0,0,"somecollege",66850.2372034956,1,0,16.720685569242,60,35
714,1,29,"WHI",1,1,1,"somecollege",36135.138576779,1,0,16.720685569242,120,35
715,1,29,"WHI",1,0,0,"highschool",4088.11360799001,1,5,19.4426576386535,72,41
716,1,29,"WHI",1,1,1,"somecollege",71956.3395755306,1,0,8.474555,12,18
717,1,29,"WHI",1,1,1,"collegeplus",123712.18102372,1,4,31.1082522218456,108,66
718,1,29,"WHI",1,0,1,"somecollege",99781.3657927591,1,1,8.474555,12,18
719,1,30,"WHI",0,0,1,"highschool",1768.20724094881,0,0,0,0,0
720,1,30,"WHI",1,1,1,"highschool",46190.3745318352,1,0,8.474555,12,18
721,1,30,"WHI",1,1,1,"highschool",55636.202247191,1,0,1.94426576386535,12,4
722,1,29,"WHI",1,1,1,"somecollege",122070.933832709,1,0,1.29617717591023,12,2
723,1,29,"WHI",1,0,0,"collegeplus",156336.297128589,1,0,16.720685569242,120,35
724,1,30,"WHI",1,1,1,"collegeplus",216508.435705368,1,1,8.474555,12,18
725,1,29,"WHI",1,0,0,"somecollege",45857.9700374532,1,4,8.474555,12,18
726,1,29,"WHI",1,0,0,"collegeplus",27522.6304619226,1,0,1.94426576386535,12,4
727,1,29,"WHI",1,0,0,"collegeplus",120164.224719101,1,0,16.720685569242,120,35
728,1,30,"WHI",1,1,1,"collegeplus",71720.88639201,0,0,0,0,0
729,1,29,"WHI",1,1,1,"highschool",895.645443196005,1,0,8.474555,12,18
730,1,30,"WHI",1,0,0,"somecollege",30862.8339575531,1,30,195.07466497449,360,418
731,1,30,"WHI",1,0,0,"collegeplus",140438.59051186,1,0,16.720685569242,120,35
732,1,29,"WHI",1,0,0,"somecollege",38141.1073657928,1,2,8.474555,12,18
733,1,34,"WHI",1,1,1,"collegeplus",78832.9575530587,1,30,117.044798984694,360,250
734,1,32,"WHI",1,1,1,"collegeplus",182527.001248439,0,0,0,0,0
735,1,33,"WHI",1,0,1,"somecollege",38577.3882646692,1,0,3.8885315277307,24,8
736,1,34,"WHI",1,0,0,"somecollege",28028.1622971286,1,0,11.147123712828,120,23
737,1,34,"WHI",1,0,1,"highschool",48965.0287141074,0,0,0,0,0
738,1,33,"WHI",1,1,1,"collegeplus",179048.29588015,0,1,0,0,0
739,1,33,"WHI",1,0,0,"collegeplus",66947.1885143571,1,0,2.59235435182047,24,5
740,1,34,"WHI",1,0,0,"highschool",65391.3508114856,1,1,78.0298659897961,360,167
741,1,32,"WHI",1,1,1,"somecollege",132389.323345818,1,2,27.86780928207,300,59
742,1,31,"WHI",1,0,0,"collegeplus",158252.239700375,1,0,33.441371138484,360,71
743,1,31,"WHI",1,1,1,"somecollege",37654.0424469413,1,4,8.474555,12,18
744,1,34,"WHI",1,1,1,"collegeplus",133665.848938826,1,0,38.885315277307,288,83
745,1,32,"WHI",1,1,1,"highschool",39124.4706616729,1,1,8.474555,12,18
746,1,32,"WHI",1,1,0,"somecollege",66727.8938826467,1,2,3.8885315277307,24,8
747,1,31,"WHI",1,1,1,"somecollege",35668.8489388265,1,4,8.474555,12,18
748,1,31,"WHI",1,1,1,"collegeplus",230829.529338327,1,0,22.294247425656,120,47
749,1,31,"WHI",1,1,1,"highschool",37529.3907615481,1,1,8.36034278462101,60,17
750,1,32,"WHI",1,0,0,"collegeplus",169295.455680399,1,3,25.9235435182047,288,55
751,1,32,"WHI",0,1,1,"highschool",69488.6978776529,0,2,0,0,0
752,1,31,"WHI",1,0,0,"somecollege",27234.0848938826,1,0,11.147123712828,120,23
753,1,32,"WHI",1,1,1,"highschool",11507.1972534332,0,2,0,0,0
754,1,34,"WHI",1,1,1,"highschool",46845.950062422,1,0,13.933904641035,300,29
755,1,32,"WHI",1,1,1,"collegeplus",51411.8951310861,1,0,11.147123712828,120,23
756,1,34,"WHI",1,0,0,"collegeplus",72851.9850187266,1,0,3.8885315277307,24,8
757,1,31,"WHI",1,0,0,"collegeplus",89726.1298377029,1,0,5.83279729159605,48,12
758,1,33,"WHI",1,1,1,"somecollege",69384.8214731586,1,1,8.474555,12,18
759,1,32,"WHI",1,0,0,"collegeplus",196201.752808989,1,0,8.474555,12,18
760,1,31,"WHI",1,1,1,"somecollege",218080.43196005,1,4,15.5541261109228,60,33
761,1,31,"WHI",0,0,0,"somecollege",29835.6117353308,1,0,5.57356185641401,60,11
762,1,33,"WHI",1,1,1,"somecollege",42891.7215980025,0,1,0,0,0
763,1,34,"WHI",0,1,1,"highschool",167457.997503121,1,6,33.441371138484,120,71
764,1,31,"WHI",1,0,1,"collegeplus",71942.4893882647,0,4,0,0,0
765,1,31,"WHI",1,1,1,"somecollege",43129.4831460674,1,1,8.474555,12,18
766,1,33,"WHI",1,0,1,"somecollege",151897.312109863,1,5,33.441371138484,120,71
767,1,34,"WHI",1,1,1,"highschool",189343.601747815,1,0,1.29617717591023,24,2
768,1,31,"WHI",1,0,1,"somecollege",52983.8913857678,1,15,78.0298659897961,360,167
769,1,34,"WHI",1,0,0,"collegeplus",28549.8526841448,1,2,11.147123712828,60,23
770,1,32,"WHI",1,0,0,"somecollege",17174.2322097378,1,4,55.7356185641401,300,119
771,1,31,"WHI",1,1,1,"somecollege",50742.4694132335,1,0,2.786780928207,60,5
772,1,33,"WHI",1,0,0,"somecollege",43514.9800249688,1,24,41.8017139231051,180,89
773,1,31,"WHI",1,0,0,"collegeplus",201411.731585518,1,0,33.441371138484,360,71
774,1,31,"WHI",1,0,0,"collegeplus",103320.088639201,1,0,33.441371138484,360,71
775,1,31,"WHI",1,0,1,"somecollege",224036.012484395,1,2,58.5223994923471,360,125
776,1,33,"WHI",1,0,1,"somecollege",226411.319600499,1,2,78.0298659897961,360,167
777,1,39,"WHI",1,0,1,"highschool",45818.7278401998,1,1,6.725247,12,14
778,1,38,"WHI",1,1,1,"collegeplus",59558.11360799,0,1,0,0,0
779,1,35,"WHI",1,1,1,"collegeplus",39512.2759051186,1,2,6.725247,12,14
780,1,36,"WHI",1,0,1,"collegeplus",167981.996254682,1,1,41.8017139231051,300,89
781,1,37,"WHI",1,1,1,"somecollege",57148.1810237204,1,0,27.86780928207,300,59
782,1,38,"WHI",1,0,1,"somecollege",60986.9912609238,1,0,3.8885315277307,48,8
783,1,35,"WHI",1,0,0,"somecollege",59911.2933832709,1,1,39.0149329948981,360,83
784,1,38,"WHI",1,1,1,"collegeplus",130554.173533084,1,0,16.720685569242,180,35
785,1,37,"WHI",1,1,1,"highschool",80515.7553058677,1,2,15.5541261109228,84,33
786,1,35,"WHI",0,0,0,"highschool",10456.8913857678,1,3,48.6066440966338,216,104
787,1,37,"WHI",1,0,1,"collegeplus",153621.660424469,1,0,11.147123712828,120,23
788,1,37,"WHI",1,0,1,"highschool",70215.8327091136,1,0,2.786780928207,60,5
789,1,38,"WHI",1,0,1,"highschool",77754.9513108614,1,1,6.725247,12,14
790,1,35,"WHI",1,0,0,"highschool",43609.6229712859,1,0,33.441371138484,240,71
791,1,37,"WHI",1,1,1,"somecollege",49525.961298377,1,0,5.57356185641401,120,11
792,1,37,"WHI",1,0,1,"highschool",66037.6928838951,1,2,15.5541261109228,84,33
793,1,37,"WHI",0,0,0,"highschool",14794.3083645443,1,3,48.6066440966338,216,104
794,1,37,"WHI",1,0,0,"collegeplus",48401.7877652934,1,2,50.1620567077261,180,107
795,1,37,"WHI",1,1,1,"collegeplus",39731.570536829,1,2,6.725247,12,14
796,1,36,"WHI",1,1,1,"somecollege",77466.4057428215,1,2,41.8017139231051,300,89
797,1,35,"WHI",1,0,0,"highschool",34939.4057428215,1,0,1.29617717591023,12,2
798,1,39,"WHI",1,1,1,"somecollege",56474.138576779,1,1,117.044798984694,360,250
799,1,35,"WHI",1,1,1,"collegeplus",194435.853932584,1,0,16.720685569242,180,35
800,1,36,"WHI",1,0,1,"somecollege",123575.987515605,1,0,0.648088587955117,12,1
801,1,39,"WHI",1,1,1,"collegeplus",133250.343320849,1,3,33.441371138484,120,71
802,1,36,"WHI",1,1,1,"collegeplus",35495.7215980025,0,2,0,0,0
803,1,37,"WHI",1,0,0,"highschool",50802.4868913858,1,4,11.147123712828,120,23
804,1,37,"WHI",1,1,1,"somecollege",37697.9013732834,0,0,0,0,0
805,1,35,"WHI",1,0,0,"highschool",22917.443196005,0,0,0,0,0
806,1,37,"WHI",1,0,1,"highschool",48417.9463171036,1,0,3.8885315277307,24,8
807,1,39,"WHI",1,1,1,"collegeplus",128287.359550562,1,0,25.9235435182047,288,55
808,1,39,"WHI",1,0,0,"highschool",18873.1885143571,1,0,6.725247,12,14
809,1,36,"WHI",1,1,1,"somecollege",56548.0062421973,1,0,6.725247,12,14
810,1,37,"WHI",1,0,1,"collegeplus",71607.7765293383,1,0,1.29617717591023,12,2
811,1,39,"WHI",1,0,0,"somecollege",58390.0811485643,1,0,41.8017139231051,300,89
812,1,35,"WHI",1,1,1,"collegeplus",49879.1410736579,1,3,39.0149329948981,360,83
813,1,39,"WHI",1,0,0,"somecollege",64461.0799001248,1,0,9.72132881932676,72,20
814,1,39,"WHI",1,0,0,"somecollege",78066.5805243446,1,1,39.0149329948981,360,83
815,1,36,"WHI",1,1,1,"highschool",136786.757802747,0,0,0,0,0
816,1,35,"WHI",1,0,1,"highschool",226757.574282147,1,0,19.4426576386535,216,41
817,1,39,"WHI",1,1,1,"collegeplus",215192.667915106,1,0,6.725247,12,14
818,1,38,"WHI",1,1,1,"somecollege",196626.491885144,1,0,1.94426576386535,12,4
819,1,39,"WHI",1,0,0,"somecollege",58055.368289638,1,1,39.0149329948981,360,83
820,1,41,"WHI",1,0,0,"collegeplus",108435.424469413,1,2,58.5223994923471,360,125
821,1,44,"WHI",1,0,0,"collegeplus",183441.11360799,0,0,0,0,0
822,1,43,"WHI",1,0,1,"highschool",54195.7827715356,0,1,0,0,0
823,1,44,"WHI",1,0,1,"highschool",114875.761548065,1,2,58.5223994923471,360,125
824,1,44,"WHI",1,0,0,"collegeplus",68782.3383270911,1,0,25.081028353863,180,53
825,1,40,"WHI",1,1,1,"collegeplus",209479.465667915,0,0,0,0,0
826,1,44,"WHI",1,1,1,"somecollege",43464.1960049938,1,0,11.147123712828,60,23
827,1,43,"WHI",1,1,1,"somecollege",47212.9800249688,0,1,0,0,0
828,1,41,"WHI",1,0,0,"collegeplus",60802.3220973783,1,2,58.5223994923471,360,125
829,1,41,"WHI",1,0,1,"somecollege",39717.720349563,1,1,7.7770630554614,60,16
830,1,43,"WHI",1,0,0,"collegeplus",70287.3920099875,1,0,25.081028353863,180,53
831,1,40,"WHI",0,1,1,"highschool",20897.6242197253,1,0,11.147123712828,120,23
832,1,43,"WHI",1,0,0,"collegeplus",38838.2334581773,1,6,83.6034278462101,300,179
833,1,42,"WHI",1,1,1,"highschool",61896.4868913858,1,2,6.725247,12,14
834,1,40,"WHI",1,1,0,"collegeplus",174316.148564295,0,0,0,0,0
835,1,40,"WHI",1,0,0,"highschool",56601.0986267166,1,0,6.725247,12,14
836,1,43,"WHI",1,1,1,"collegeplus",221697.639200999,1,0,12.9617717591023,144,27
837,1,44,"WHI",1,0,0,"highschool",43815.0674157303,1,0,39.0149329948981,360,83
838,1,44,"WHI",1,0,0,"collegeplus",51778.925093633,0,0,0,0,0
839,1,43,"WHI",1,0,1,"collegeplus",209710.302122347,1,4,58.5223994923471,360,125
840,1,40,"WHI",1,0,0,"somecollege",54239.6416978777,1,6,78.0298659897961,360,167
841,1,42,"WHI",1,0,0,"collegeplus",173201.208489388,1,1,38.885315277307,288,83
842,1,42,"WHI",1,0,0,"highschool",43840.4594257179,0,0,0,0,0
843,1,44,"WHI",1,1,1,"somecollege",130004.782771536,1,2,39.0149329948981,360,83
844,1,42,"WHI",1,1,1,"collegeplus",218832.958801498,0,0,0,0,0
845,1,49,"WHI",1,1,1,"collegeplus",121419.975031211,0,0,0,0,0
846,1,46,"WHI",1,0,0,"highschool",28614.4868913858,1,0,6.725247,12,14
847,1,46,"WHI",1,0,1,"somecollege",157171.925093633,1,1,58.3279729159605,252,124
848,1,48,"WHI",1,1,1,"collegeplus",96168.7752808989,1,0,2.59235435182047,60,5
849,1,47,"WHI",1,1,1,"highschool",68883.9063670412,1,1,16.720685569242,180,35
850,1,45,"WHI",1,1,1,"highschool",202131.941323346,1,0,2.59235435182047,24,5
851,1,49,"WHI",0,1,1,"highschool",54941.3845193508,0,0,0,0,0
852,1,45,"WHI",0,0,1,"highschool",5320.78027465668,1,0,1.29617717591023,12,2
853,1,45,"WHI",1,1,0,"somecollege",51386.5031210986,1,0,2.59235435182047,24,5
854,1,48,"WHI",1,0,1,"highschool",52012.0699126092,1,1,6.725247,12,14
855,1,47,"WHI",1,1,1,"somecollege",203320.74906367,0,0,0,0,0
856,1,46,"WHI",1,1,1,"somecollege",60548.4019975031,1,0,16.720685569242,120,35
857,1,47,"WHI",1,1,1,"somecollege",58674.0099875156,1,0,16.720685569242,120,35
858,1,46,"WHI",1,0,0,"collegeplus",130436.446941323,1,2,39.0149329948981,360,83
859,1,46,"WHI",1,1,1,"highschool",162513.480649189,0,1,0,0,0
860,1,45,"WHI",1,0,1,"highschool",143351.746566792,0,0,0,0,0
861,1,49,"WHI",1,1,1,"collegeplus",217664.926342072,1,0,11.147123712828,120,23
862,1,47,"WHI",1,0,1,"highschool",53558.6741573034,1,1,78.0298659897961,360,167
863,1,46,"WHI",1,0,1,"highschool",109379.54556804,1,0,16.720685569242,120,35
864,1,47,"WHI",1,1,1,"somecollege",53385.5468164794,0,0,0,0,0
865,1,48,"WHI",1,1,1,"somecollege",76127.5543071161,1,0,16.720685569242,120,35
866,1,48,"WHI",1,1,1,"somecollege",134175.997503121,1,0,16.720685569242,120,35
867,1,47,"WHI",1,0,1,"collegeplus",94462.8938826467,1,0,5.57356185641401,120,11
868,1,49,"WHI",1,1,1,"collegeplus",80536.5305867665,0,2,0,0,0
869,1,46,"WHI",1,1,1,"highschool",140616.334581773,0,0,0,0,0
870,1,45,"WHI",1,1,1,"highschool",31123.6791510612,1,0,0.648088587955117,12,1
871,1,48,"WHI",1,0,1,"collegeplus",81803.822721598,0,0,0,0,0
872,1,48,"WHI",1,0,0,"collegeplus",56499.5305867665,1,1,27.86780928207,300,59
873,1,56,"WHI",1,1,1,"highschool",28134.3470661673,0,4,0,0,0
874,1,57,"WHI",1,1,1,"highschool",57090.4719101124,0,0,0,0,0
875,1,56,"WHI",0,0,0,"highschool",12181.2397003745,1,0,0.648088587955117,12,1
876,1,51,"WHI",1,1,1,"highschool",23693.0536828964,1,0,6.725247,12,14
877,1,52,"WHI",1,1,1,"highschool",73449.8514357054,1,8,39.0149329948981,360,83
878,1,52,"WHI",1,1,1,"collegeplus",206141.570536829,1,0,1.29617717591023,24,2
879,1,52,"WHI",0,0,1,"somecollege",27010.1735330836,1,0,6.725247,12,14
880,1,58,"WHI",1,0,0,"collegeplus",154997.445692884,1,0,6.725247,12,14
881,1,53,"WHI",1,1,1,"collegeplus",143843.428214732,1,0,1.29617717591023,24,2
882,1,56,"WHI",0,0,1,"highschool",10980.8901373283,0,0,0,0,0
883,1,59,"WHI",1,0,1,"collegeplus",147467.560549313,1,0,11.147123712828,240,23
884,1,57,"WHI",0,0,1,"collegeplus",23487.6092384519,0,0,0,0,0
885,1,56,"WHI",1,0,1,"somecollege",45103.1348314607,1,0,6.725247,12,14
886,1,53,"WHI",1,0,1,"highschool",33378.9513108614,0,0,0,0,0
887,1,52,"WHI",1,1,1,"highschool",60652.2784019975,0,1,0,0,0
888,1,57,"WHI",0,0,0,"highschool",31569.1935081149,1,0,5.57356185641401,60,11
889,1,50,"WHI",1,0,1,"somecollege",74137.7440699126,0,0,0,0,0
890,1,51,"WHI",1,0,1,"highschool",72337.2197253433,1,0,3.8885315277307,48,8
891,1,57,"WHI",1,0,1,"highschool",38676.6479400749,1,3,11.6655945831921,48,24
892,1,55,"WHI",1,1,1,"collegeplus",85866.5443196005,1,0,41.8017139231051,300,89
893,1,56,"WHI",1,0,1,"highschool",59943.6104868914,1,2,6.48088587955117,24,13
894,1,57,"WHI",1,0,1,"highschool",223872.118601748,0,0,0,0,0
895,1,57,"WHI",1,0,1,"collegeplus",49191.2484394507,0,1,0,0,0
896,1,58,"WHI",0,0,0,"somecollege",71829.379525593,1,0,38.885315277307,360,83
897,1,51,"WHI",1,0,1,"highschool",32656.4332084894,1,0,1.29617717591023,24,2
898,1,59,"WHI",1,1,1,"highschool",44821.5143570537,1,0,6.725247,12,14
899,1,57,"WHI",0,0,0,"highschool",20096.6217228464,0,0,0,0,0
900,1,59,"WHI",1,0,1,"collegeplus",85201.7353308365,1,0,2.59235435182047,60,5
901,1,53,"WHI",1,1,1,"highschool",30274.2009987516,1,0,6.725247,12,14
902,1,56,"WHI",1,0,1,"highschool",74026.9425717853,1,0,6.725247,12,14
903,1,50,"WHI",1,1,1,"highschool",74700.9850187266,1,6,15.5541261109228,60,33
904,1,56,"WHI",1,0,0,"highschool",78869.8913857678,1,0,6.725247,12,14
905,1,53,"WHI",1,0,0,"highschool",61176.2771535581,1,0,6.725247,12,14
906,1,54,"WHI",0,1,1,"collegeplus",69103.2009987516,0,0,0,0,0
907,1,56,"WHI",1,1,1,"highschool",184094.380774032,1,2,31.1082522218456,168,66
908,1,51,"WHI",1,0,1,"highschool",164717.968789014,1,2,31.1082522218456,168,66
909,1,50,"WHI",1,1,1,"highschool",69137.8264669164,1,0,6.725247,12,14
910,1,53,"WHI",1,0,1,"highschool",48009.3657927591,1,0,3.8885315277307,48,8
911,1,52,"WHI",1,0,0,"highschool",40955.0037453184,1,0,16.720685569242,120,35
912,1,56,"WHI",0,0,1,"somecollege",64955.0699126092,1,0,11.147123712828,120,23
913,1,54,"WHI",1,0,1,"highschool",48842.6853932584,1,0,1.29617717591023,24,2
914,1,51,"WHI",1,0,1,"collegeplus",114776.501872659,1,0,27.86780928207,300,59
915,1,58,"WHI",1,1,1,"collegeplus",196778.843945069,1,0,2.59235435182047,24,5
916,1,54,"WHI",1,1,1,"somecollege",147047.438202247,1,0,6.725247,12,14
917,1,53,"WHI",1,0,1,"collegeplus",196220.219725343,1,0,1.29617717591023,24,2
918,1,52,"WHI",0,1,1,"collegeplus",60396.049937578,0,0,0,0,0
919,1,58,"WHI",1,0,1,"highschool",13113.8189762797,1,0,3.8885315277307,24,8
920,1,59,"WHI",1,0,0,"collegeplus",203752.413233458,1,0,9.07324023137164,96,19
921,1,51,"WHI",1,0,1,"highschool",56801.9263420724,1,0,3.8885315277307,48,8
922,1,51,"WHI",1,0,0,"highschool",36774.5555555556,1,2,33.441371138484,240,71
923,1,54,"WHI",0,0,1,"highschool",36896.8988764045,0,2,0,0,0
924,1,56,"WHI",0,0,1,"highschool",6597.30586766542,0,0,0,0,0
925,1,51,"WHI",1,1,1,"collegeplus",209167.836454432,1,0,1.29617717591023,24,2
926,1,79,"WHI",0,1,1,"somecollege",39833.138576779,1,1,16.720685569242,120,35
927,1,76,"WHI",0,1,1,"highschool",14545.0049937578,1,2,16.720685569242,120,35
928,1,76,"WHI",0,0,1,"highschool",76028.2946317104,1,0,7.7770630554614,60,16
929,1,76,"WHI",0,0,0,"somecollege",13808.6367041199,1,0,5.57356185641401,120,11
930,1,71,"WHI",0,0,1,"highschool",28115.8801498127,1,0,41.8017139231051,300,89
931,1,76,"WHI",0,0,0,"somecollege",29237.7453183521,0,0,0,0,0
932,1,62,"WHI",0,0,1,"highschool",14962.8189762797,1,0,11.147123712828,120,23
933,1,79,"WHI",0,1,1,"somecollege",36391.3670411985,1,0,8.36034278462101,60,17
934,1,69,"WHI",1,0,0,"somecollege",207097.233458177,1,0,13.933904641035,300,29
935,1,73,"WHI",0,0,1,"highschool",593.249687890137,1,0,6.725247,12,14
936,1,73,"WHI",1,0,1,"highschool",225587.233458177,1,2,22.294247425656,240,47
937,1,71,"WHI",0,0,1,"somecollege",59168,1,0,39.0149329948981,360,83
938,1,61,"WHI",1,0,1,"collegeplus",78911.4419475655,1,0,39.0149329948981,360,83
939,1,60,"WHI",0,0,1,"somecollege",42610.1011235955,0,0,0,0,0
940,1,66,"WHI",0,0,1,"highschool",34503.1248439451,1,4,39.0149329948981,360,83
941,1,63,"WHI",0,0,1,"somecollege",28764.5305867665,0,0,0,0,0
942,1,65,"WHI",0,0,1,"collegeplus",58457.0237203496,1,0,25.081028353863,180,53
943,1,65,"WHI",0,0,1,"collegeplus",74583.2584269663,1,0,11.147123712828,240,23
944,1,60,"WHI",0,0,1,"highschool",59311.1186017478,1,0,39.0149329948981,360,83
945,1,65,"WHI",0,1,1,"highschool",49163.5480649189,1,0,1.29617717591023,24,2
946,1,64,"WHI",0,0,1,"highschool",55059.1111111111,1,0,5.57356185641401,60,11
947,1,64,"WHI",0,0,1,"highschool",29660.1760299625,1,0,39.0149329948981,360,83
948,1,66,"WHI",0,0,1,"highschool",49322.8252184769,0,0,0,0,0
949,1,67,"WHI",0,0,1,"collegeplus",58821.7453183521,1,4,33.441371138484,240,71
950,1,67,"WHI",0,0,1,"highschool",217263.270911361,1,1,39.0149329948981,360,83
951,1,60,"WHI",0,0,0,"highschool",33692.8888888889,1,0,11.147123712828,120,23
952,1,75,"WHI",0,0,1,"collegeplus",33023.4631710362,0,0,0,0,0
953,1,72,"WHI",0,0,0,"highschool",18776.2372034956,1,0,8.36034278462101,180,17
954,1,70,"WHI",0,0,1,"highschool",56566.4731585518,0,0,0,0,0
955,1,64,"WHI",1,0,0,"highschool",6221.04244694132,0,0,0,0,0
956,1,63,"WHI",0,1,1,"highschool",45627.1335830212,0,0,0,0,0
957,1,70,"WHI",0,0,1,"highschool",48200.9600499376,1,1,3.360499,12,7
958,1,77,"WHI",0,0,1,"highschool",41679.8302122347,0,0,0,0,0
959,1,60,"WHI",0,1,1,"highschool",34911.7053682896,1,0,19.507466497449,360,41
960,1,67,"WHI",1,0,1,"highschool",53674.0923845194,1,2,27.86780928207,300,59
961,1,65,"WHI",0,0,1,"highschool",50262.329588015,1,1,39.0149329948981,360,83
962,1,63,"WHI",1,0,1,"collegeplus",68438.3920099875,0,0,0,0,0
963,1,73,"WHI",0,0,0,"highschool",32908.0449438202,0,0,0,0,0
964,1,64,"WHI",0,0,1,"highschool",19316.3945068664,0,0,0,0,0
965,1,67,"WHI",0,0,1,"highschool",39846.9887640449,1,4,3.360499,12,7
966,1,68,"WHI",1,0,0,"highschool",45218.5530586767,1,1,15.5541261109228,84,33
967,1,60,"WHI",0,0,1,"somecollege",2924.69787765293,1,0,3.360499,12,7
968,1,78,"WHI",0,0,1,"collegeplus",65047.404494382,1,0,39.0149329948981,360,83
969,1,69,"WHI",0,0,1,"highschool",51873.5680399501,1,0,1.29617717591023,24,2
970,1,79,"WHI",0,0,1,"somecollege",147799.965043695,1,1,16.720685569242,180,35
971,1,70,"WHI",1,0,0,"collegeplus",44899.9987515606,1,0,6.725247,12,14
972,1,66,"WHI",0,0,0,"somecollege",14441.1285892634,1,0,5.57356185641401,120,11
973,1,61,"WHI",0,1,1,"highschool",23369.8826466916,1,0,6.725247,12,14
974,1,78,"WHI",0,0,0,"collegeplus",5500.83270911361,0,0,0,0,0
975,1,64,"WHI",0,0,1,"highschool",38937.493133583,0,0,0,0,0
976,1,70,"WHI",1,0,0,"highschool",36991.5418227216,1,1,15.5541261109228,84,33
977,1,75,"WHI",0,1,1,"highschool",12633.6791510612,0,0,0,0,0
978,1,60,"WHI",0,0,1,"highschool",31195.2384519351,0,1,0,0,0
979,1,75,"WHI",0,0,1,"highschool",242.378277153558,0,0,0,0,0
980,1,73,"WHI",0,0,0,"highschool",44505.2684144819,0,0,0,0,0
981,1,71,"WHI",0,0,1,"collegeplus",230589.459425718,1,0,8.36034278462101,60,17
982,1,63,"WHI",0,1,1,"collegeplus",214029.252184769,1,0,8.36034278462101,60,17
983,1,61,"WHI",0,0,1,"highschool",3176.30961298377,0,0,0,0,0
984,1,75,"WHI",1,0,1,"collegeplus",174950.948813983,1,0,8.36034278462101,180,17
985,1,75,"WHI",0,0,0,"highschool",16230.1111111111,1,0,3.360499,12,7
986,1,65,"WHI",0,0,1,"highschool",78459.0024968789,1,0,27.86780928207,300,59
987,1,78,"WHI",0,1,1,"somecollege",67616.6142322097,1,30,58.5223994923471,360,125
988,1,64,"WHI",1,0,1,"highschool",25128.8564294632,1,0,6.725247,12,14
989,1,74,"WHI",0,0,1,"highschool",24295.5368289638,1,0,6.725247,12,14
990,1,65,"WHI",0,1,1,"collegeplus",72840.443196005,1,4,33.441371138484,240,71
991,1,79,"WHI",1,0,0,"highschool",72427.2459425718,1,1,78.0298659897961,360,167
992,1,68,"WHI",0,1,1,"highschool",57291.2996254682,1,0,5.57356185641401,60,11
993,1,73,"WHI",0,0,1,"collegeplus",50917.9051186018,1,0,19.507466497449,360,41
994,1,60,"WHI",1,0,1,"highschool",37921.8127340824,1,0,8.36034278462101,60,17
995,1,61,"WHI",0,0,1,"highschool",39576.9101123596,1,0,39.0149329948981,360,83
996,1,61,"WHI",0,1,1,"somecollege",188570.299625468,1,0,6.725247,12,14
997,1,62,"WHI",0,0,1,"somecollege",44816.897627965,0,2,0,0,0
998,1,64,"WHI",1,0,0,"highschool",57443.6516853933,1,0,6.725247,12,14
999,1,73,"WHI",0,0,1,"somecollege",13303.1048689139,0,0,0,0,0
1000,1,65,"WHI",0,0,1,"highschool",38300.3845193508,1,0,3.8885315277307,24,8
